configname vbm cbm gap	  configname    selected               corr(0)           corr(1)           corr(2)           corr(3)           corr(4)           corr(5)           corr(6)           corr(7)           corr(8)           corr(9)           corr(10)           corr(11)           corr(12)           corr(13)           corr(14)           corr(15)           corr(16)           corr(17)           corr(18)           corr(19)           corr(20)           corr(21)           corr(22)           corr(23)           corr(24)
SCEL1_1_1_1_0_0_0/0 4.0499 4.6389 0.5889999999999995	    SCEL1_1_1_1_0_0_0/0           1                                                                                                                           1.00000000    0.50000000    0.00000000    0.00000000    0.00000000    0.00000000    0.50000000    0.00000000    0.00000000    0.00000000    0.00000000    0.50000000    0.00000000    0.50000000    0.00000000    0.00000000    0.00000000    0.00000000    0.00000000    0.00000000    0.00000000    0.00000000    0.00000000    0.00000000    0.00000000
SCEL1_1_1_1_0_0_0/1 4.1185 4.5463 0.4277999999999995	    SCEL1_1_1_1_0_0_0/1           1                                                                                                                           1.00000000    0.00000000    1.00000000    0.00000000    0.00000000    0.00000000    0.00000000    1.00000000    0.00000000    0.00000000    1.00000000    0.00000000    0.00000000    0.00000000    1.00000000    0.00000000    0.00000000    0.00000000    0.00000000    0.00000000    0.00000000    0.00000000    0.00000000    0.00000000    0.00000000
SCEL2_1_1_2_0_0_0/0 4.2459 4.4979 0.2519999999999998	    SCEL2_1_1_2_0_0_0/0           1                                                                                                                           1.00000000    0.25000000    0.50000000    0.00000000    0.12500000    0.00000000    0.25000000    0.50000000    0.12500000    0.12500000    0.00000000    0.00000000    0.00000000    0.25000000    0.50000000    0.00000000    0.12500000    0.12500000    0.00000000    0.00000000    0.00000000    0.00000000    0.12500000    0.12500000    0.00000000
SCEL2_1_1_2_0_0_0/1 4.2256 4.6086 0.383	    SCEL2_1_1_2_0_0_0/1           1                                                                                                                           1.00000000    0.50000000    0.00000000    0.50000000    0.00000000    0.00000000    0.50000000    0.00000000    0.00000000    0.00000000    0.00000000    0.00000000    0.00000000    0.50000000    0.00000000    0.00000000    0.00000000    0.00000000    0.50000000    0.00000000    0.00000000    0.50000000    0.00000000    0.00000000    0.00000000
SCEL2_1_1_2_0_0_0/2 4.0696 4.6359 0.5663	    SCEL2_1_1_2_0_0_0/2           1                                                                                                                           1.00000000    0.50000000    0.00000000    0.00000000    0.00000000    0.50000000    0.50000000    0.00000000    0.00000000    0.00000000    0.00000000    0.00000000    0.50000000    0.50000000    0.00000000    0.50000000    0.00000000    0.00000000    0.00000000    0.00000000    0.00000000    0.00000000    0.00000000    0.00000000    0.00000000
SCEL2_1_2_1_1_0_0/0 4.2966 4.5357 0.23910000000000053	    SCEL2_1_2_1_1_0_0/0           1                                                                                                                           1.00000000    0.25000000    0.50000000    0.00000000    0.18750000    0.00000000    0.12500000    0.25000000    0.06250000    0.06250000    0.25000000    0.12500000    0.00000000    0.00000000    0.00000000    0.00000000    0.18750000    0.06250000    0.00000000    0.00000000    0.00000000    0.00000000    0.12500000    0.12500000    0.00000000
SCEL2_1_2_1_1_0_0/1 4.1132 4.5609 0.4477000000000002	    SCEL2_1_2_1_1_0_0/1           1                                                                                                                           1.00000000    0.25000000    0.50000000    0.00000000    0.06250000    0.00000000    0.12500000    0.25000000    0.18750000    0.18750000    0.25000000    0.12500000    0.00000000    0.00000000    0.00000000    0.00000000    0.06250000    0.18750000    0.00000000    0.00000000    0.00000000    0.00000000    0.00000000    0.00000000    0.00000000
SCEL2_1_2_1_1_0_0/2 4.1895 4.5685 0.37900000000000045	    SCEL2_1_2_1_1_0_0/2           1                                                                                                                           1.00000000    0.50000000    0.00000000    0.25000000    0.00000000    0.25000000    0.25000000    0.00000000    0.00000000    0.00000000    0.00000000    0.25000000    0.00000000    0.00000000    0.00000000    0.50000000    0.00000000    0.00000000    0.25000000    0.00000000    0.00000000    0.12500000    0.00000000    0.00000000    0.00000000
SCEL2_1_2_1_1_0_0/3 4.2294 4.6016 0.3722000000000003	    SCEL2_1_2_1_1_0_0/3           1                                                                                                                           1.00000000    0.50000000    0.00000000    0.25000000    0.00000000    0.25000000    0.25000000    0.00000000    0.00000000    0.00000000    0.00000000    0.25000000    0.50000000    0.00000000    0.00000000    0.00000000    0.00000000    0.00000000    0.25000000    0.00000000    0.00000000    0.12500000    0.00000000    0.00000000    0.00000000
SCEL2_2_1_1_0_0_1/0 4.2814 4.5404 0.25900000000000034	    SCEL2_2_1_1_0_0_1/0           1                                                                                                                           1.00000000    0.25000000    0.50000000    0.00000000    0.12500000    0.00000000    0.00000000    0.00000000    0.12500000    0.12500000    0.25000000    0.12500000    0.00000000    0.25000000    0.50000000    0.00000000    0.12500000    0.12500000    0.00000000    0.00000000    0.00000000    0.00000000    0.00000000    0.00000000    0.00000000
SCEL2_2_1_1_0_0_1/1 4.2903 4.6044 0.3140999999999998	    SCEL2_2_1_1_0_0_1/1           1                                                                                                                           1.00000000    0.50000000    0.00000000    0.25000000    0.00000000    0.50000000    0.00000000    0.00000000    0.00000000    0.00000000    0.00000000    0.25000000    0.00000000    0.50000000    0.00000000    0.00000000    0.00000000    0.00000000    0.25000000    0.00000000    0.00000000    0.00000000    0.00000000    0.00000000    0.00000000
SCEL3_1_1_3_0_0_0/0 4.3069 4.5039 0.19700000000000006	    SCEL3_1_1_3_0_0_0/0           1                                                                                                                           1.00000000    0.33333333    0.33333333    0.00000000    0.08333333    0.16666667    0.33333333    0.33333333    0.08333333    0.08333333    0.00000000    0.00000000    0.16666667    0.33333333    0.33333333    0.16666667    0.08333333    0.16666667    0.00000000    0.00000000    0.00000000    0.00000000    0.08333333    0.08333333    0.00000000
SCEL3_1_1_3_0_0_0/1 4.3045 4.5024 0.19789999999999974	    SCEL3_1_1_3_0_0_0/1           1                                                                                                                           1.00000000    0.33333333    0.33333333    0.00000000    0.08333333    0.00000000    0.33333333    0.33333333    0.08333333    0.08333333    0.00000000    0.16666667    0.00000000    0.33333333    0.33333333    0.00000000    0.08333333    0.16666667    0.00000000    0.00000000    0.00000000    0.00000000    0.08333333    0.08333333    0.00000000
SCEL3_1_1_3_0_0_0/2 -99.0 -99.0 -99.0	    SCEL3_1_1_3_0_0_0/2           1                                                                                                                           1.00000000    0.33333333    0.33333333    0.33333333    0.16666667    0.00000000    0.33333333    0.33333333    0.16666667    0.16666667    0.00000000    0.00000000    0.00000000    0.33333333    0.33333333    0.00000000    0.16666667    0.00000000    0.33333333    0.16666667    0.16666667    0.33333333    0.16666667    0.16666667    0.00000000
SCEL3_1_1_3_0_0_0/3 4.4503 4.5025 0.052200000000000024	    SCEL3_1_1_3_0_0_0/3           1                                                                                                                           1.00000000    0.50000000    0.00000000    0.33333333    0.00000000    0.16666667    0.50000000    0.00000000    0.00000000    0.00000000    0.00000000    0.16666667    0.16666667    0.50000000    0.00000000    0.16666667    0.00000000    0.00000000    0.33333333    0.00000000    0.00000000    0.33333333    0.00000000    0.00000000    0.00000000
SCEL3_1_1_3_0_0_0/4 4.344 4.4686 0.12460000000000004	    SCEL3_1_1_3_0_0_0/4           1                                                                                                                           1.00000000    0.16666667    0.66666667    0.00000000    0.08333333    0.00000000    0.16666667    0.66666667    0.08333333    0.08333333    0.33333333    0.00000000    0.00000000    0.16666667    0.66666667    0.00000000    0.08333333    0.16666667    0.00000000    0.00000000    0.00000000    0.00000000    0.08333333    0.08333333    0.00000000
SCEL3_1_1_3_0_0_0/5 -99.0 -99.0 -99.0	    SCEL3_1_1_3_0_0_0/5           1                                                                                                                           1.00000000    0.33333333    0.33333333    0.00000000    0.16666667    0.00000000    0.33333333    0.33333333    0.16666667    0.16666667    0.00000000    0.16666667    0.00000000    0.33333333    0.33333333    0.00000000    0.16666667    0.00000000    0.00000000    0.00000000    0.00000000    0.00000000    0.16666667    0.16666667    0.00000000
SCEL3_1_1_3_0_0_0/7 4.4707 4.4764 0.005700000000000038	    SCEL3_1_1_3_0_0_0/7           1                                                                                                                           1.00000000    0.33333333    0.33333333    0.00000000    0.16666667    0.16666667    0.33333333    0.33333333    0.16666667    0.16666667    0.00000000    0.00000000    0.16666667    0.33333333    0.33333333    0.16666667    0.16666667    0.00000000    0.00000000    0.00000000    0.00000000    0.00000000    0.16666667    0.16666667    0.16666667
SCEL3_1_3_1_0_0_0/0 4.4217 4.4897 0.06799999999999962	    SCEL3_1_3_1_0_0_0/0           1                                                                                                                           1.00000000    0.16666667    0.66666667    0.00000000    0.12500000    0.00000000    0.08333333    0.50000000    0.08333333    0.08333333    0.50000000    0.08333333    0.00000000    0.00000000    0.33333333    0.00000000    0.16666667    0.08333333    0.00000000    0.00000000    0.00000000    0.00000000    0.08333333    0.08333333    0.00000000
SCEL3_1_3_1_0_0_0/1 4.3203 4.5842 0.26390000000000047	    SCEL3_1_3_1_0_0_0/1           1                                                                                                                           1.00000000    0.50000000    0.00000000    0.16666667    0.00000000    0.16666667    0.33333333    0.00000000    0.00000000    0.00000000    0.00000000    0.33333333    0.33333333    0.16666667    0.00000000    0.08333333    0.00000000    0.00000000    0.25000000    0.00000000    0.00000000    0.08333333    0.00000000    0.00000000    0.00000000
SCEL3_1_3_1_0_0_0/2 4.4419 4.5094 0.0674999999999999	    SCEL3_1_3_1_0_0_0/2           1                                                                                                                           1.00000000    0.33333333    0.33333333    0.00000000    0.12500000    0.00000000    0.25000000    0.16666667    0.08333333    0.08333333    0.16666667    0.25000000    0.00000000    0.16666667    0.00000000    0.00000000    0.16666667    0.08333333    0.00000000    0.00000000    0.00000000    0.00000000    0.08333333    0.08333333    0.00000000
SCEL3_1_3_1_0_0_0/3 4.5432 4.5566 0.013400000000000745	    SCEL3_1_3_1_0_0_0/3           1                                                                                                                           1.00000000    0.50000000    0.00000000    0.33333333    0.00000000    0.33333333    0.33333333    0.00000000    0.00000000    0.00000000    0.00000000    0.33333333    0.25000000    0.16666667    0.00000000    0.25000000    0.00000000    0.00000000    0.16666667    0.00000000    0.00000000    0.25000000    0.00000000    0.00000000    0.00000000
SCEL3_1_3_1_0_0_0/4 4.463 4.497 0.03399999999999981	    SCEL3_1_3_1_0_0_0/4           1                                                                                                                           1.00000000    0.33333333    0.33333333    0.16666667    0.04166667    0.16666667    0.16666667    0.16666667    0.12500000    0.12500000    0.16666667    0.16666667    0.25000000    0.00000000    0.00000000    0.00000000    0.08333333    0.12500000    0.08333333    0.00000000    0.00000000    0.08333333    0.00000000    0.00000000    0.00000000
SCEL3_1_3_1_0_0_0/5 4.2806 4.562 0.28140000000000054	    SCEL3_1_3_1_0_0_0/5           1                                                                                                                           1.00000000    0.50000000    0.00000000    0.16666667    0.00000000    0.16666667    0.33333333    0.00000000    0.00000000    0.00000000    0.00000000    0.33333333    0.08333333    0.16666667    0.00000000    0.33333333    0.00000000    0.00000000    0.25000000    0.00000000    0.00000000    0.08333333    0.00000000    0.00000000    0.00000000
SCEL3_1_3_1_0_0_0/6 4.1543 4.5371 0.3827999999999996	    SCEL3_1_3_1_0_0_0/6           1                                                                                                                           1.00000000    0.33333333    0.33333333    0.16666667    0.00000000    0.16666667    0.16666667    0.16666667    0.08333333    0.08333333    0.16666667    0.16666667    0.00000000    0.00000000    0.00000000    0.25000000    0.16666667    0.08333333    0.08333333    0.00000000    0.00000000    0.08333333    0.00000000    0.00000000    0.00000000
SCEL3_1_3_1_0_0_0/7 4.5096 4.5266 0.017000000000000348	    SCEL3_1_3_1_0_0_0/7           1                                                                                                                           1.00000000    0.33333333    0.33333333    0.00000000    0.16666667    0.00000000    0.25000000    0.16666667    0.12500000    0.12500000    0.16666667    0.25000000    0.00000000    0.16666667    0.00000000    0.00000000    0.08333333    0.12500000    0.00000000    0.00000000    0.00000000    0.00000000    0.08333333    0.16666667    0.00000000
SCEL3_1_3_1_0_0_0/8 4.5188 4.5334 0.014600000000000612	    SCEL3_1_3_1_0_0_0/8           1                                                                                                                           1.00000000    0.16666667    0.66666667    0.00000000    0.16666667    0.00000000    0.08333333    0.50000000    0.12500000    0.12500000    0.50000000    0.08333333    0.00000000    0.00000000    0.33333333    0.00000000    0.08333333    0.12500000    0.00000000    0.00000000    0.00000000    0.00000000    0.16666667    0.08333333    0.00000000
SCEL3_1_3_1_0_0_0/9 4.1398 4.5487 0.40890000000000004	    SCEL3_1_3_1_0_0_0/9           1                                                                                                                           1.00000000    0.16666667    0.66666667    0.00000000    0.04166667    0.00000000    0.08333333    0.50000000    0.12500000    0.12500000    0.50000000    0.08333333    0.00000000    0.00000000    0.33333333    0.00000000    0.08333333    0.12500000    0.00000000    0.00000000    0.00000000    0.00000000    0.00000000    0.00000000    0.00000000
SCEL3_1_3_1_2_0_0/0 4.1858 4.5337 0.3478999999999992	    SCEL3_1_3_1_2_0_0/0           1                                                                                                                           1.00000000    0.16666667    0.66666667    0.00000000    0.08333333    0.00000000    0.08333333    0.50000000    0.16666667    0.16666667    0.33333333    0.00000000    0.00000000    0.00000000    0.33333333    0.00000000    0.00000000    0.08333333    0.00000000    0.00000000    0.00000000    0.00000000    0.08333333    0.00000000    0.00000000
SCEL3_1_3_1_2_0_0/1 4.2592 4.5498 0.2906000000000004	    SCEL3_1_3_1_2_0_0/1           1                                                                                                                           1.00000000    0.33333333    0.33333333    0.16666667    0.12500000    0.00000000    0.16666667    0.16666667    0.08333333    0.08333333    0.00000000    0.00000000    0.08333333    0.00000000    0.00000000    0.08333333    0.16666667    0.12500000    0.08333333    0.08333333    0.08333333    0.08333333    0.08333333    0.08333333    0.00000000
SCEL3_1_3_1_2_0_0/2 4.2418 4.5422 0.30040000000000067	    SCEL3_1_3_1_2_0_0/2           1                                                                                                                           1.00000000    0.16666667    0.66666667    0.00000000    0.12500000    0.00000000    0.08333333    0.50000000    0.08333333    0.08333333    0.33333333    0.00000000    0.00000000    0.00000000    0.33333333    0.00000000    0.16666667    0.12500000    0.00000000    0.00000000    0.00000000    0.00000000    0.08333333    0.08333333    0.00000000
SCEL3_1_3_1_2_0_0/3 4.2786 4.5533 0.27470000000000017	    SCEL3_1_3_1_2_0_0/3           1                                                                                                                           1.00000000    0.33333333    0.33333333    0.16666667    0.08333333    0.00000000    0.16666667    0.16666667    0.16666667    0.16666667    0.00000000    0.00000000    0.08333333    0.00000000    0.00000000    0.08333333    0.00000000    0.08333333    0.08333333    0.00000000    0.00000000    0.08333333    0.00000000    0.00000000    0.00000000
SCEL3_1_3_1_2_0_0/4 4.1245 4.6101 0.4855999999999998	    SCEL3_1_3_1_2_0_0/4           1                                                                                                                           1.00000000    0.50000000    0.00000000    0.16666667    0.00000000    0.33333333    0.33333333    0.00000000    0.00000000    0.00000000    0.00000000    0.16666667    0.25000000    0.16666667    0.00000000    0.25000000    0.00000000    0.00000000    0.25000000    0.00000000    0.00000000    0.08333333    0.00000000    0.00000000    0.00000000
SCEL3_1_3_1_2_0_0/5 4.1528 4.5511 0.3982999999999999	    SCEL3_1_3_1_2_0_0/5           1                                                                                                                           1.00000000    0.33333333    0.33333333    0.00000000    0.08333333    0.00000000    0.25000000    0.16666667    0.16666667    0.16666667    0.00000000    0.16666667    0.00000000    0.16666667    0.00000000    0.00000000    0.00000000    0.08333333    0.00000000    0.00000000    0.00000000    0.00000000    0.00000000    0.08333333    0.00000000
SCEL3_1_3_1_2_0_0/6 4.2154 4.5635 0.3481000000000005	    SCEL3_1_3_1_2_0_0/6           1                                                                                                                           1.00000000    0.33333333    0.33333333    0.00000000    0.12500000    0.00000000    0.25000000    0.16666667    0.08333333    0.08333333    0.00000000    0.16666667    0.00000000    0.16666667    0.00000000    0.00000000    0.16666667    0.12500000    0.00000000    0.00000000    0.00000000    0.00000000    0.08333333    0.08333333    0.00000000
SCEL3_3_1_1_0_0_1/0 4.4836 4.508 0.024399999999999977	    SCEL3_3_1_1_0_0_1/0           1                                                                                                                           1.00000000    0.33333333    0.33333333    0.08333333    0.16666667    0.00000000    0.00000000    0.00000000    0.08333333    0.08333333    0.16666667    0.16666667    0.16666667    0.16666667    0.16666667    0.16666667    0.00000000    0.16666667    0.16666667    0.08333333    0.08333333    0.00000000    0.00000000    0.00000000    0.00000000
SCEL3_3_1_1_0_0_1/1 4.2817 4.5637 0.28200000000000003	    SCEL3_3_1_1_0_0_1/1           1                                                                                                                           1.00000000    0.33333333    0.33333333    0.00000000    0.08333333    0.00000000    0.16666667    0.00000000    0.12500000    0.12500000    0.16666667    0.25000000    0.00000000    0.25000000    0.16666667    0.00000000    0.16666667    0.08333333    0.00000000    0.00000000    0.00000000    0.00000000    0.00000000    0.00000000    0.00000000
SCEL3_3_1_1_0_0_1/2 4.4495 4.5579 0.1084000000000005	    SCEL3_3_1_1_0_0_1/2           1                                                                                                                           1.00000000    0.50000000    0.00000000    0.25000000    0.00000000    0.33333333    0.16666667    0.00000000    0.00000000    0.00000000    0.00000000    0.33333333    0.16666667    0.33333333    0.00000000    0.16666667    0.00000000    0.00000000    0.16666667    0.00000000    0.00000000    0.08333333    0.00000000    0.00000000    0.00000000
SCEL3_3_1_1_0_0_1/3 4.2907 4.564 0.2732999999999999	    SCEL3_3_1_1_0_0_1/3           1                                                                                                                           1.00000000    0.33333333    0.33333333    0.16666667    0.00000000    0.33333333    0.00000000    0.00000000    0.16666667    0.16666667    0.16666667    0.16666667    0.00000000    0.16666667    0.16666667    0.00000000    0.33333333    0.00000000    0.00000000    0.00000000    0.00000000    0.00000000    0.00000000    0.00000000    0.00000000
SCEL3_3_1_1_0_0_1/4 -99.0 -99.0 -99.0	    SCEL3_3_1_1_0_0_1/4           1                                                                                                                           1.00000000    0.33333333    0.33333333    0.16666667    0.16666667    0.33333333    0.00000000    0.00000000    0.08333333    0.08333333    0.16666667    0.16666667    0.00000000    0.16666667    0.16666667    0.00000000    0.00000000    0.16666667    0.00000000    0.08333333    0.08333333    0.00000000    0.00000000    0.00000000    0.16666667
SCEL3_3_1_1_0_0_1/5 4.3067 4.5376 0.2309000000000001	    SCEL3_3_1_1_0_0_1/5           1                                                                                                                           1.00000000    0.16666667    0.66666667    0.00000000    0.08333333    0.00000000    0.00000000    0.33333333    0.12500000    0.12500000    0.50000000    0.08333333    0.00000000    0.08333333    0.50000000    0.00000000    0.16666667    0.08333333    0.00000000    0.00000000    0.00000000    0.00000000    0.00000000    0.00000000    0.00000000
SCEL3_3_1_1_0_0_1/6 4.2785 4.5599 0.28139999999999965	    SCEL3_3_1_1_0_0_1/6           1                                                                                                                           1.00000000    0.33333333    0.33333333    0.08333333    0.08333333    0.00000000    0.00000000    0.00000000    0.12500000    0.12500000    0.16666667    0.16666667    0.16666667    0.16666667    0.16666667    0.16666667    0.16666667    0.08333333    0.16666667    0.00000000    0.00000000    0.00000000    0.00000000    0.00000000    0.00000000
SCEL3_3_1_1_0_1_1/0 4.1514 4.5571 0.4057000000000004	    SCEL3_3_1_1_0_1_1/0           1                                                                                                                           1.00000000    0.16666667    0.66666667    0.00000000    0.08333333    0.00000000    0.00000000    0.33333333    0.12500000    0.12500000    0.41666667    0.04166667    0.00000000    0.08333333    0.50000000    0.00000000    0.16666667    0.16666667    0.00000000    0.00000000    0.00000000    0.00000000    0.00000000    0.00000000    0.00000000
SCEL3_3_1_1_0_1_1/1 4.3304 4.5364 0.2060000000000004	    SCEL3_3_1_1_0_1_1/1           1                                                                                                                           1.00000000    0.33333333    0.33333333    0.00000000    0.12500000    0.00000000    0.16666667    0.00000000    0.04166667    0.16666667    0.08333333    0.20833333    0.00000000    0.25000000    0.16666667    0.00000000    0.08333333    0.08333333    0.00000000    0.00000000    0.00000000    0.00000000    0.00000000    0.08333333    0.00000000
SCEL3_3_1_1_0_1_1/10 4.323 4.5832 0.2601999999999993	    SCEL3_3_1_1_0_1_1/10          1                                                                                                                           1.00000000    0.50000000    0.00000000    0.25000000    0.00000000    0.16666667    0.16666667    0.00000000    0.00000000    0.00000000    0.00000000    0.25000000    0.25000000    0.33333333    0.00000000    0.25000000    0.00000000    0.00000000    0.16666667    0.00000000    0.00000000    0.08333333    0.00000000    0.00000000    0.00000000
SCEL3_3_1_1_0_1_1/2 4.2683 4.5181 0.24979999999999958	    SCEL3_3_1_1_0_1_1/2           1                                                                                                                           1.00000000    0.16666667    0.66666667    0.00000000    0.12500000    0.00000000    0.00000000    0.33333333    0.04166667    0.16666667    0.41666667    0.04166667    0.00000000    0.08333333    0.50000000    0.00000000    0.08333333    0.08333333    0.00000000    0.00000000    0.00000000    0.00000000    0.08333333    0.00000000    0.00000000
SCEL3_3_1_1_0_1_1/3 4.2908 4.5404 0.24960000000000004	    SCEL3_3_1_1_0_1_1/3           1                                                                                                                           1.00000000    0.33333333    0.33333333    0.16666667    0.08333333    0.00000000    0.00000000    0.00000000    0.00000000    0.25000000    0.08333333    0.08333333    0.16666667    0.16666667    0.16666667    0.16666667    0.16666667    0.16666667    0.00000000    0.00000000    0.08333333    0.00000000    0.00000000    0.00000000    0.00000000
SCEL3_3_1_1_0_1_1/4 4.1273 4.6146 0.4873000000000003	    SCEL3_3_1_1_0_1_1/4           1                                                                                                                           1.00000000    0.50000000    0.00000000    0.16666667    0.00000000    0.33333333    0.16666667    0.00000000    0.00000000    0.00000000    0.00000000    0.25000000    0.16666667    0.33333333    0.00000000    0.16666667    0.00000000    0.00000000    0.33333333    0.00000000    0.00000000    0.00000000    0.00000000    0.00000000    0.00000000
SCEL3_3_1_1_0_1_1/5 4.1711 4.5889 0.4177999999999997	    SCEL3_3_1_1_0_1_1/5           1                                                                                                                           1.00000000    0.33333333    0.33333333    0.08333333    0.08333333    0.16666667    0.00000000    0.00000000    0.12500000    0.12500000    0.08333333    0.08333333    0.08333333    0.16666667    0.16666667    0.08333333    0.16666667    0.16666667    0.16666667    0.00000000    0.00000000    0.00000000    0.00000000    0.00000000    0.00000000
SCEL3_3_1_1_0_1_1/6 4.406 4.4423 0.036300000000000665	    SCEL3_3_1_1_0_1_1/6           1                                                                                                                           1.00000000    0.33333333    0.33333333    0.16666667    0.16666667    0.00000000    0.00000000    0.00000000    0.08333333    0.08333333    0.08333333    0.08333333    0.16666667    0.16666667    0.16666667    0.16666667    0.00000000    0.00000000    0.00000000    0.08333333    0.08333333    0.00000000    0.00000000    0.00000000    0.00000000
SCEL3_3_1_1_0_1_1/7 4.2734 4.5893 0.31590000000000007	    SCEL3_3_1_1_0_1_1/7           1                                                                                                                           1.00000000    0.50000000    0.00000000    0.25000000    0.00000000    0.16666667    0.16666667    0.00000000    0.00000000    0.00000000    0.00000000    0.25000000    0.25000000    0.33333333    0.00000000    0.25000000    0.00000000    0.00000000    0.16666667    0.00000000    0.00000000    0.08333333    0.00000000    0.00000000    0.00000000
SCEL3_3_1_1_0_1_1/8 4.3041 4.5031 0.19899999999999984	    SCEL3_3_1_1_0_1_1/8           1                                                                                                                           1.00000000    0.16666667    0.66666667    0.00000000    0.12500000    0.00000000    0.00000000    0.33333333    0.16666667    0.04166667    0.41666667    0.04166667    0.00000000    0.08333333    0.50000000    0.00000000    0.08333333    0.08333333    0.00000000    0.00000000    0.00000000    0.00000000    0.08333333    0.00000000    0.00000000
SCEL3_3_1_1_0_1_1/9 4.2412 4.5388 0.2976000000000001	    SCEL3_3_1_1_0_1_1/9           1                                                                                                                           1.00000000    0.33333333    0.33333333    0.00000000    0.12500000    0.00000000    0.16666667    0.00000000    0.16666667    0.04166667    0.08333333    0.20833333    0.00000000    0.25000000    0.16666667    0.00000000    0.08333333    0.08333333    0.00000000    0.00000000    0.00000000    0.00000000    0.00000000    0.08333333    0.00000000
SCEL4_1_1_4_0_0_0/0 4.36 4.5115 0.15149999999999952	    SCEL4_1_1_4_0_0_0/0           1                                                                                                                           1.00000000    0.37500000    0.25000000    0.00000000    0.06250000    0.25000000    0.37500000    0.25000000    0.06250000    0.06250000    0.00000000    0.00000000    0.25000000    0.37500000    0.25000000    0.25000000    0.06250000    0.12500000    0.00000000    0.00000000    0.00000000    0.00000000    0.06250000    0.06250000    0.00000000
SCEL4_1_1_4_0_0_0/1 -99.0 -99.0 -99.0	    SCEL4_1_1_4_0_0_0/1           1                                                                                                                           1.00000000    0.37500000    0.25000000    0.00000000    0.12500000    0.12500000    0.37500000    0.25000000    0.12500000    0.12500000    0.00000000    0.12500000    0.12500000    0.37500000    0.25000000    0.12500000    0.12500000    0.06250000    0.00000000    0.00000000    0.00000000    0.00000000    0.12500000    0.12500000    0.12500000
SCEL4_1_1_4_0_0_0/10 -99.0 -99.0 -99.0	    SCEL4_1_1_4_0_0_0/10          1                                                                                                                           1.00000000    0.25000000    0.50000000    0.00000000    0.12500000    0.12500000    0.25000000    0.50000000    0.12500000    0.12500000    0.00000000    0.00000000    0.12500000    0.25000000    0.50000000    0.12500000    0.12500000    0.12500000    0.00000000    0.00000000    0.00000000    0.00000000    0.12500000    0.12500000    0.00000000
SCEL4_1_1_4_0_0_0/11 -99.0 -99.0 -99.0	    SCEL4_1_1_4_0_0_0/11          1                                                                                                                           1.00000000    0.50000000    0.00000000    0.25000000    0.00000000    0.12500000    0.50000000    0.00000000    0.00000000    0.00000000    0.00000000    0.25000000    0.12500000    0.50000000    0.00000000    0.12500000    0.00000000    0.00000000    0.25000000    0.00000000    0.00000000    0.25000000    0.00000000    0.00000000    0.00000000
SCEL4_1_1_4_0_0_0/12 -99.0 -99.0 -99.0	    SCEL4_1_1_4_0_0_0/12          1                                                                                                                           1.00000000    0.12500000    0.75000000    0.00000000    0.12500000    0.00000000    0.12500000    0.75000000    0.12500000    0.12500000    0.50000000    0.00000000    0.00000000    0.12500000    0.75000000    0.00000000    0.12500000    0.06250000    0.00000000    0.00000000    0.00000000    0.00000000    0.12500000    0.12500000    0.00000000
SCEL4_1_1_4_0_0_0/13 4.3922 4.4451 0.05290000000000017	    SCEL4_1_1_4_0_0_0/13          1                                                                                                                           1.00000000    0.12500000    0.75000000    0.00000000    0.06250000    0.00000000    0.12500000    0.75000000    0.06250000    0.06250000    0.50000000    0.00000000    0.00000000    0.12500000    0.75000000    0.00000000    0.06250000    0.12500000    0.00000000    0.00000000    0.00000000    0.00000000    0.06250000    0.06250000    0.00000000
SCEL4_1_1_4_0_0_0/14 4.3689 4.5244 0.15549999999999997	    SCEL4_1_1_4_0_0_0/14          1                                                                                                                           1.00000000    0.37500000    0.25000000    0.00000000    0.06250000    0.12500000    0.37500000    0.25000000    0.06250000    0.06250000    0.00000000    0.12500000    0.12500000    0.37500000    0.25000000    0.12500000    0.06250000    0.12500000    0.00000000    0.00000000    0.00000000    0.00000000    0.06250000    0.06250000    0.00000000
SCEL4_1_1_4_0_0_0/15 -99.0 -99.0 -99.0	    SCEL4_1_1_4_0_0_0/15          1                                                                                                                           1.00000000    0.37500000    0.25000000    0.00000000    0.12500000    0.12500000    0.37500000    0.25000000    0.12500000    0.12500000    0.00000000    0.12500000    0.12500000    0.37500000    0.25000000    0.12500000    0.12500000    0.06250000    0.00000000    0.00000000    0.00000000    0.00000000    0.12500000    0.12500000    0.00000000
SCEL4_1_1_4_0_0_0/2 -99.0 -99.0 -99.0	    SCEL4_1_1_4_0_0_0/2           1                                                                                                                           1.00000000    0.25000000    0.50000000    0.00000000    0.06250000    0.12500000    0.25000000    0.50000000    0.06250000    0.06250000    0.25000000    0.00000000    0.12500000    0.25000000    0.50000000    0.12500000    0.06250000    0.18750000    0.00000000    0.00000000    0.00000000    0.00000000    0.06250000    0.06250000    0.00000000
SCEL4_1_1_4_0_0_0/3 -99.0 -99.0 -99.0	    SCEL4_1_1_4_0_0_0/3           1                                                                                                                           1.00000000    0.37500000    0.25000000    0.00000000    0.12500000    0.25000000    0.37500000    0.25000000    0.12500000    0.12500000    0.00000000    0.00000000    0.25000000    0.37500000    0.25000000    0.25000000    0.12500000    0.06250000    0.00000000    0.00000000    0.00000000    0.00000000    0.12500000    0.12500000    0.12500000
SCEL4_1_1_4_0_0_0/4 4.3586 4.5158 0.15719999999999956	    SCEL4_1_1_4_0_0_0/4           1                                                                                                                           1.00000000    0.37500000    0.25000000    0.00000000    0.06250000    0.00000000    0.37500000    0.25000000    0.06250000    0.06250000    0.00000000    0.25000000    0.00000000    0.37500000    0.25000000    0.00000000    0.06250000    0.12500000    0.00000000    0.00000000    0.00000000    0.00000000    0.06250000    0.06250000    0.00000000
SCEL4_1_1_4_0_0_0/5 4.487 4.492 0.004999999999999893	    SCEL4_1_1_4_0_0_0/5           1                                                                                                                           1.00000000    0.37500000    0.25000000    0.25000000    0.06250000    0.00000000    0.37500000    0.25000000    0.06250000    0.06250000    0.00000000    0.00000000    0.00000000    0.37500000    0.25000000    0.00000000    0.06250000    0.12500000    0.25000000    0.00000000    0.00000000    0.25000000    0.06250000    0.06250000    0.00000000
SCEL4_1_1_4_0_0_0/6 4.0535 4.6345 0.5810000000000004	    SCEL4_1_1_4_0_0_0/6           1                                                                                                                           1.00000000    0.50000000    0.00000000    0.00000000    0.00000000    0.25000000    0.50000000    0.00000000    0.00000000    0.00000000    0.00000000    0.25000000    0.25000000    0.50000000    0.00000000    0.25000000    0.00000000    0.00000000    0.00000000    0.00000000    0.00000000    0.00000000    0.00000000    0.00000000    0.00000000
SCEL4_1_1_4_0_0_0/7 -99.0 -99.0 -99.0	    SCEL4_1_1_4_0_0_0/7           1                                                                                                                           1.00000000    0.50000000    0.00000000    0.25000000    0.00000000    0.25000000    0.50000000    0.00000000    0.00000000    0.00000000    0.00000000    0.12500000    0.25000000    0.50000000    0.00000000    0.25000000    0.00000000    0.00000000    0.25000000    0.00000000    0.00000000    0.25000000    0.00000000    0.00000000    0.00000000
SCEL4_1_1_4_0_0_0/8 -99.0 -99.0 -99.0	    SCEL4_1_1_4_0_0_0/8           1                                                                                                                           1.00000000    0.25000000    0.50000000    0.00000000    0.12500000    0.00000000    0.25000000    0.50000000    0.12500000    0.12500000    0.25000000    0.00000000    0.00000000    0.25000000    0.50000000    0.00000000    0.12500000    0.12500000    0.00000000    0.00000000    0.00000000    0.00000000    0.12500000    0.12500000    0.00000000
SCEL4_1_1_4_0_0_0/9 -99.0 -99.0 -99.0	    SCEL4_1_1_4_0_0_0/9           1                                                                                                                           1.00000000    0.37500000    0.25000000    0.25000000    0.18750000    0.12500000    0.37500000    0.25000000    0.18750000    0.18750000    0.00000000    0.12500000    0.12500000    0.37500000    0.25000000    0.12500000    0.18750000    0.00000000    0.25000000    0.12500000    0.12500000    0.25000000    0.18750000    0.18750000    0.12500000
SCEL4_1_2_2_0_0_0/0 4.2034 4.5484 0.34499999999999975	    SCEL4_1_2_2_0_0_0/0           1                                                                                                                           1.00000000    0.25000000    0.50000000    0.12500000    0.12500000    0.00000000    0.12500000    0.25000000    0.12500000    0.12500000    0.25000000    0.00000000    0.00000000    0.00000000    0.00000000    0.00000000    0.12500000    0.12500000    0.12500000    0.06250000    0.06250000    0.06250000    0.06250000    0.06250000    0.00000000
SCEL4_1_2_2_0_0_0/1 4.1807 4.5965 0.41579999999999995	    SCEL4_1_2_2_0_0_0/1           1                                                                                                                           1.00000000    0.50000000    0.00000000    0.25000000    0.00000000    0.25000000    0.25000000    0.00000000    0.00000000    0.00000000    0.00000000    0.25000000    0.25000000    0.00000000    0.00000000    0.25000000    0.00000000    0.00000000    0.25000000    0.00000000    0.00000000    0.12500000    0.00000000    0.00000000    0.00000000
SCEL4_1_2_2_0_0_0/10 4.2008 4.5019 0.3010999999999999	    SCEL4_1_2_2_0_0_0/10          1                                                                                                                           1.00000000    0.25000000    0.50000000    0.00000000    0.12500000    0.12500000    0.12500000    0.50000000    0.12500000    0.12500000    0.00000000    0.00000000    0.25000000    0.00000000    0.50000000    0.00000000    0.12500000    0.12500000    0.00000000    0.00000000    0.00000000    0.00000000    0.12500000    0.00000000    0.00000000
SCEL4_1_2_2_0_0_0/2 4.261 4.5437 0.2827000000000002	    SCEL4_1_2_2_0_0_0/2           1                                                                                                                           1.00000000    0.37500000    0.25000000    0.12500000    0.15625000    0.12500000    0.18750000    0.12500000    0.03125000    0.03125000    0.00000000    0.12500000    0.25000000    0.00000000    0.00000000    0.00000000    0.15625000    0.03125000    0.12500000    0.06250000    0.06250000    0.06250000    0.12500000    0.12500000    0.12500000
SCEL4_1_2_2_0_0_0/3 4.2148 4.5291 0.31429999999999936	    SCEL4_1_2_2_0_0_0/3           1                                                                                                                           1.00000000    0.37500000    0.25000000    0.12500000    0.12500000    0.12500000    0.18750000    0.12500000    0.06250000    0.06250000    0.00000000    0.12500000    0.00000000    0.00000000    0.00000000    0.25000000    0.12500000    0.06250000    0.12500000    0.06250000    0.06250000    0.06250000    0.06250000    0.06250000    0.06250000
SCEL4_1_2_2_0_0_0/4 4.1747 4.5627 0.3880000000000008	    SCEL4_1_2_2_0_0_0/4           1                                                                                                                           1.00000000    0.25000000    0.50000000    0.00000000    0.12500000    0.00000000    0.25000000    0.25000000    0.12500000    0.12500000    0.25000000    0.00000000    0.00000000    0.25000000    0.00000000    0.00000000    0.12500000    0.12500000    0.00000000    0.00000000    0.00000000    0.00000000    0.06250000    0.12500000    0.00000000
SCEL4_1_2_2_0_0_0/5 4.1715 4.5698 0.3982999999999999	    SCEL4_1_2_2_0_0_0/5           1                                                                                                                           1.00000000    0.37500000    0.25000000    0.00000000    0.12500000    0.00000000    0.31250000    0.12500000    0.06250000    0.06250000    0.00000000    0.25000000    0.00000000    0.25000000    0.00000000    0.00000000    0.12500000    0.06250000    0.00000000    0.00000000    0.00000000    0.00000000    0.06250000    0.12500000    0.00000000
SCEL4_1_2_2_0_0_0/6 4.2736 4.5464 0.27280000000000015	    SCEL4_1_2_2_0_0_0/6           1                                                                                                                           1.00000000    0.25000000    0.50000000    0.00000000    0.18750000    0.12500000    0.12500000    0.25000000    0.06250000    0.06250000    0.25000000    0.00000000    0.25000000    0.00000000    0.00000000    0.00000000    0.18750000    0.06250000    0.00000000    0.00000000    0.00000000    0.00000000    0.12500000    0.12500000    0.12500000
SCEL4_1_2_2_0_0_0/7 4.1634 4.5594 0.3959999999999999	    SCEL4_1_2_2_0_0_0/7           1                                                                                                                           1.00000000    0.25000000    0.50000000    0.12500000    0.06250000    0.00000000    0.12500000    0.25000000    0.18750000    0.18750000    0.25000000    0.00000000    0.00000000    0.00000000    0.00000000    0.00000000    0.06250000    0.18750000    0.12500000    0.00000000    0.00000000    0.06250000    0.00000000    0.00000000    0.00000000
SCEL4_1_2_2_0_0_0/8 4.2612 4.5224 0.26120000000000054	    SCEL4_1_2_2_0_0_0/8           1                                                                                                                           1.00000000    0.25000000    0.50000000    0.12500000    0.18750000    0.00000000    0.12500000    0.25000000    0.06250000    0.06250000    0.25000000    0.00000000    0.00000000    0.00000000    0.00000000    0.00000000    0.18750000    0.06250000    0.12500000    0.12500000    0.12500000    0.06250000    0.12500000    0.12500000    0.00000000
SCEL4_1_2_2_0_0_0/9 4.267 4.5556 0.28859999999999975	    SCEL4_1_2_2_0_0_0/9           1                                                                                                                           1.00000000    0.37500000    0.25000000    0.12500000    0.12500000    0.12500000    0.18750000    0.12500000    0.06250000    0.06250000    0.00000000    0.12500000    0.25000000    0.00000000    0.00000000    0.00000000    0.12500000    0.06250000    0.12500000    0.06250000    0.06250000    0.06250000    0.06250000    0.06250000    0.00000000
SCEL4_1_2_2_1_0_0/0 4.2166 4.5379 0.3212999999999999	    SCEL4_1_2_2_1_0_0/0           1                                                                                                                           1.00000000    0.25000000    0.50000000    0.00000000    0.18750000    0.00000000    0.12500000    0.25000000    0.06250000    0.06250000    0.25000000    0.12500000    0.00000000    0.00000000    0.00000000    0.00000000    0.18750000    0.18750000    0.00000000    0.00000000    0.00000000    0.00000000    0.12500000    0.12500000    0.00000000
SCEL4_1_2_2_1_0_0/1 4.2066 4.5629 0.35630000000000006	    SCEL4_1_2_2_1_0_0/1           1                                                                                                                           1.00000000    0.25000000    0.50000000    0.12500000    0.06250000    0.00000000    0.12500000    0.25000000    0.18750000    0.18750000    0.25000000    0.00000000    0.00000000    0.00000000    0.00000000    0.00000000    0.06250000    0.06250000    0.12500000    0.00000000    0.00000000    0.06250000    0.00000000    0.00000000    0.00000000
SCEL4_1_2_2_1_0_0/2 4.2225 4.5575 0.33499999999999996	    SCEL4_1_2_2_1_0_0/2           1                                                                                                                           1.00000000    0.37500000    0.25000000    0.25000000    0.09375000    0.00000000    0.31250000    0.12500000    0.09375000    0.09375000    0.00000000    0.00000000    0.00000000    0.25000000    0.00000000    0.00000000    0.09375000    0.09375000    0.25000000    0.06250000    0.06250000    0.18750000    0.06250000    0.06250000    0.00000000
SCEL4_1_2_2_1_0_0/3 4.1496 4.5539 0.4042999999999992	    SCEL4_1_2_2_1_0_0/3           1                                                                                                                           1.00000000    0.37500000    0.25000000    0.12500000    0.03125000    0.25000000    0.18750000    0.12500000    0.15625000    0.15625000    0.00000000    0.12500000    0.12500000    0.00000000    0.00000000    0.12500000    0.03125000    0.03125000    0.12500000    0.00000000    0.00000000    0.06250000    0.00000000    0.00000000    0.00000000
SCEL4_1_2_2_1_0_0/4 4.1965 4.5428 0.3462999999999994	    SCEL4_1_2_2_1_0_0/4           1                                                                                                                           1.00000000    0.25000000    0.50000000    0.12500000    0.12500000    0.00000000    0.12500000    0.25000000    0.12500000    0.12500000    0.25000000    0.00000000    0.00000000    0.00000000    0.00000000    0.00000000    0.12500000    0.12500000    0.12500000    0.06250000    0.06250000    0.06250000    0.06250000    0.06250000    0.00000000
SCEL4_1_2_2_1_0_0/5 4.2249 4.5562 0.3312999999999997	    SCEL4_1_2_2_1_0_0/5           1                                                                                                                           1.00000000    0.25000000    0.50000000    0.00000000    0.12500000    0.00000000    0.12500000    0.25000000    0.12500000    0.12500000    0.25000000    0.12500000    0.00000000    0.00000000    0.00000000    0.00000000    0.12500000    0.12500000    0.00000000    0.00000000    0.00000000    0.00000000    0.06250000    0.06250000    0.00000000
SCEL4_1_2_2_1_0_0/6 4.1757 4.573 0.39730000000000043	    SCEL4_1_2_2_1_0_0/6           1                                                                                                                           1.00000000    0.37500000    0.25000000    0.00000000    0.09375000    0.25000000    0.31250000    0.12500000    0.09375000    0.09375000    0.00000000    0.00000000    0.25000000    0.25000000    0.00000000    0.25000000    0.09375000    0.09375000    0.00000000    0.00000000    0.00000000    0.00000000    0.00000000    0.06250000    0.06250000
SCEL4_1_2_2_1_0_0/7 4.2292 4.5534 0.32420000000000027	    SCEL4_1_2_2_1_0_0/7           1                                                                                                                           1.00000000    0.37500000    0.25000000    0.12500000    0.12500000    0.00000000    0.18750000    0.12500000    0.06250000    0.06250000    0.00000000    0.12500000    0.12500000    0.00000000    0.00000000    0.12500000    0.12500000    0.12500000    0.12500000    0.06250000    0.06250000    0.06250000    0.06250000    0.06250000    0.00000000
SCEL4_1_2_2_1_0_0/8 4.2133 4.5677 0.35440000000000005	    SCEL4_1_2_2_1_0_0/8           1                                                                                                                           1.00000000    0.37500000    0.25000000    0.12500000    0.09375000    0.00000000    0.18750000    0.12500000    0.09375000    0.09375000    0.00000000    0.12500000    0.12500000    0.00000000    0.00000000    0.12500000    0.09375000    0.09375000    0.12500000    0.06250000    0.06250000    0.06250000    0.06250000    0.06250000    0.00000000
SCEL4_1_4_1_0_0_0/0 4.3418 4.5589 0.2171000000000003	    SCEL4_1_4_1_0_0_0/0           1                                                                                                                           1.00000000    0.50000000    0.00000000    0.12500000    0.00000000    0.12500000    0.37500000    0.00000000    0.00000000    0.00000000    0.00000000    0.37500000    0.06250000    0.25000000    0.00000000    0.25000000    0.00000000    0.00000000    0.18750000    0.00000000    0.00000000    0.06250000    0.00000000    0.00000000    0.00000000
SCEL4_1_4_1_0_0_0/1 -99.0 -99.0 -99.0	    SCEL4_1_4_1_0_0_0/1           1                                                                                                                           1.00000000    0.50000000    0.00000000    0.37500000    0.00000000    0.37500000    0.37500000    0.00000000    0.00000000    0.00000000    0.00000000    0.37500000    0.25000000    0.25000000    0.00000000    0.37500000    0.00000000    0.00000000    0.25000000    0.00000000    0.00000000    0.31250000    0.00000000    0.00000000    0.00000000
SCEL4_1_4_1_0_0_0/10 4.6294 4.6443 0.014899999999999913	    SCEL4_1_4_1_0_0_0/10          1                                                                                                                           1.00000000    0.25000000    0.50000000    0.00000000    0.12500000    0.00000000    0.12500000    0.37500000    0.12500000    0.12500000    0.37500000    0.12500000    0.00000000    0.00000000    0.25000000    0.00000000    0.12500000    0.12500000    0.00000000    0.00000000    0.00000000    0.00000000    0.06250000    0.06250000    0.00000000
SCEL4_1_4_1_0_0_0/2 -99.0 -99.0 -99.0	    SCEL4_1_4_1_0_0_0/2           1                                                                                                                           1.00000000    0.25000000    0.50000000    0.12500000    0.12500000    0.12500000    0.12500000    0.37500000    0.12500000    0.12500000    0.37500000    0.12500000    0.00000000    0.00000000    0.25000000    0.18750000    0.12500000    0.12500000    0.06250000    0.06250000    0.06250000    0.06250000    0.06250000    0.06250000    0.06250000
SCEL4_1_4_1_0_0_0/3 4.3983 4.5638 0.16549999999999976	    SCEL4_1_4_1_0_0_0/3           1                                                                                                                           1.00000000    0.37500000    0.25000000    0.12500000    0.09375000    0.12500000    0.18750000    0.12500000    0.03125000    0.03125000    0.12500000    0.18750000    0.25000000    0.00000000    0.00000000    0.00000000    0.12500000    0.03125000    0.12500000    0.00000000    0.00000000    0.06250000    0.06250000    0.06250000    0.00000000
SCEL4_1_4_1_0_0_0/4 -99.0 -99.0 -99.0	    SCEL4_1_4_1_0_0_0/4           1                                                                                                                           1.00000000    0.37500000    0.25000000    0.12500000    0.12500000    0.12500000    0.18750000    0.12500000    0.12500000    0.12500000    0.12500000    0.18750000    0.00000000    0.00000000    0.00000000    0.25000000    0.09375000    0.12500000    0.12500000    0.06250000    0.06250000    0.06250000    0.06250000    0.06250000    0.06250000
SCEL4_1_4_1_0_0_0/5 -99.0 -99.0 -99.0	    SCEL4_1_4_1_0_0_0/5           1                                                                                                                           1.00000000    0.25000000    0.50000000    0.12500000    0.21875000    0.12500000    0.12500000    0.37500000    0.15625000    0.15625000    0.37500000    0.12500000    0.18750000    0.00000000    0.25000000    0.00000000    0.15625000    0.15625000    0.06250000    0.12500000    0.12500000    0.06250000    0.18750000    0.12500000    0.12500000
SCEL4_1_4_1_0_0_0/6 -99.0 -99.0 -99.0	    SCEL4_1_4_1_0_0_0/6           1                                                                                                                           1.00000000    0.12500000    0.75000000    0.00000000    0.12500000    0.00000000    0.06250000    0.62500000    0.12500000    0.12500000    0.62500000    0.06250000    0.00000000    0.00000000    0.50000000    0.00000000    0.09375000    0.12500000    0.00000000    0.00000000    0.00000000    0.00000000    0.12500000    0.06250000    0.00000000
SCEL4_1_4_1_0_0_0/7 -99.0 -99.0 -99.0	    SCEL4_1_4_1_0_0_0/7           1                                                                                                                           1.00000000    0.37500000    0.25000000    0.12500000    0.09375000    0.12500000    0.25000000    0.12500000    0.06250000    0.06250000    0.12500000    0.25000000    0.06250000    0.12500000    0.00000000    0.18750000    0.12500000    0.06250000    0.12500000    0.00000000    0.00000000    0.06250000    0.06250000    0.06250000    0.00000000
SCEL4_1_4_1_0_0_0/8 4.2539 4.5493 0.2953999999999999	    SCEL4_1_4_1_0_0_0/8           1                                                                                                                           1.00000000    0.37500000    0.25000000    0.00000000    0.09375000    0.00000000    0.25000000    0.12500000    0.06250000    0.06250000    0.12500000    0.25000000    0.06250000    0.12500000    0.00000000    0.06250000    0.12500000    0.06250000    0.12500000    0.00000000    0.00000000    0.00000000    0.06250000    0.06250000    0.00000000
SCEL4_1_4_1_0_0_0/9 4.2269 4.5653 0.33840000000000003	    SCEL4_1_4_1_0_0_0/9           1                                                                                                                           1.00000000    0.25000000    0.50000000    0.00000000    0.03125000    0.00000000    0.18750000    0.37500000    0.09375000    0.09375000    0.37500000    0.18750000    0.00000000    0.12500000    0.25000000    0.00000000    0.09375000    0.09375000    0.00000000    0.00000000    0.00000000    0.00000000    0.00000000    0.00000000    0.00000000
SCEL4_1_4_1_3_0_0/0 4.2407 4.5348 0.29409999999999936	    SCEL4_1_4_1_3_0_0/0           1                                                                                                                           1.00000000    0.37500000    0.25000000    0.12500000    0.09375000    0.12500000    0.18750000    0.12500000    0.09375000    0.09375000    0.00000000    0.12500000    0.00000000    0.00000000    0.00000000    0.25000000    0.12500000    0.09375000    0.12500000    0.06250000    0.06250000    0.06250000    0.06250000    0.06250000    0.00000000
SCEL4_1_4_1_3_0_0/1 4.2208 4.5433 0.3225000000000007	    SCEL4_1_4_1_3_0_0/1           1                                                                                                                           1.00000000    0.25000000    0.50000000    0.12500000    0.09375000    0.00000000    0.12500000    0.37500000    0.09375000    0.09375000    0.12500000    0.00000000    0.06250000    0.00000000    0.25000000    0.00000000    0.15625000    0.21875000    0.06250000    0.06250000    0.06250000    0.06250000    0.06250000    0.06250000    0.00000000
SCEL4_1_4_1_3_0_0/10 4.4728 4.4807 0.007899999999999352	    SCEL4_1_4_1_3_0_0/10          1                                                                                                                           1.00000000    0.25000000    0.50000000    0.12500000    0.15625000    0.00000000    0.12500000    0.37500000    0.15625000    0.15625000    0.12500000    0.00000000    0.06250000    0.00000000    0.25000000    0.00000000    0.09375000    0.03125000    0.06250000    0.06250000    0.06250000    0.06250000    0.12500000    0.06250000    0.00000000
SCEL4_1_4_1_3_0_0/11 4.2605 4.5443 0.2837999999999994	    SCEL4_1_4_1_3_0_0/11          1                                                                                                                           1.00000000    0.37500000    0.25000000    0.12500000    0.12500000    0.12500000    0.18750000    0.12500000    0.06250000    0.06250000    0.00000000    0.12500000    0.25000000    0.00000000    0.00000000    0.00000000    0.09375000    0.06250000    0.12500000    0.06250000    0.06250000    0.06250000    0.06250000    0.06250000    0.00000000
SCEL4_1_4_1_3_0_0/2 4.2062 4.577 0.3708	    SCEL4_1_4_1_3_0_0/2           1                                                                                                                           1.00000000    0.37500000    0.25000000    0.25000000    0.03125000    0.00000000    0.25000000    0.12500000    0.09375000    0.09375000    0.00000000    0.06250000    0.06250000    0.12500000    0.00000000    0.06250000    0.06250000    0.21875000    0.12500000    0.00000000    0.00000000    0.18750000    0.00000000    0.00000000    0.00000000
SCEL4_1_4_1_3_0_0/3 4.1702 4.5821 0.41189999999999927	    SCEL4_1_4_1_3_0_0/3           1                                                                                                                           1.00000000    0.37500000    0.25000000    0.12500000    0.06250000    0.12500000    0.25000000    0.12500000    0.09375000    0.09375000    0.00000000    0.06250000    0.18750000    0.12500000    0.00000000    0.06250000    0.03125000    0.15625000    0.12500000    0.00000000    0.00000000    0.06250000    0.00000000    0.00000000    0.00000000
SCEL4_1_4_1_3_0_0/4 4.4068 4.4989 0.09210000000000029	    SCEL4_1_4_1_3_0_0/4           1                                                                                                                           1.00000000    0.25000000    0.50000000    0.00000000    0.15625000    0.00000000    0.18750000    0.37500000    0.09375000    0.09375000    0.12500000    0.06250000    0.00000000    0.12500000    0.25000000    0.00000000    0.21875000    0.09375000    0.00000000    0.00000000    0.00000000    0.00000000    0.12500000    0.12500000    0.00000000
SCEL4_1_4_1_3_0_0/5 4.2761 4.57 0.2939000000000007	    SCEL4_1_4_1_3_0_0/5           1                                                                                                                           1.00000000    0.25000000    0.50000000    0.00000000    0.12500000    0.00000000    0.18750000    0.25000000    0.12500000    0.12500000    0.25000000    0.06250000    0.00000000    0.12500000    0.00000000    0.00000000    0.12500000    0.12500000    0.00000000    0.00000000    0.00000000    0.00000000    0.06250000    0.12500000    0.00000000
SCEL4_1_4_1_3_0_0/6 4.277 4.5338 0.25680000000000014	    SCEL4_1_4_1_3_0_0/6           1                                                                                                                           1.00000000    0.25000000    0.50000000    0.12500000    0.12500000    0.00000000    0.12500000    0.25000000    0.12500000    0.12500000    0.25000000    0.00000000    0.00000000    0.00000000    0.00000000    0.06250000    0.12500000    0.12500000    0.06250000    0.06250000    0.06250000    0.06250000    0.06250000    0.06250000    0.00000000
SCEL4_1_4_1_3_0_0/7 4.3577 4.506 0.14829999999999988	    SCEL4_1_4_1_3_0_0/7           1                                                                                                                           1.00000000    0.12500000    0.75000000    0.00000000    0.12500000    0.00000000    0.06250000    0.62500000    0.09375000    0.09375000    0.50000000    0.00000000    0.00000000    0.00000000    0.50000000    0.00000000    0.09375000    0.03125000    0.00000000    0.00000000    0.00000000    0.00000000    0.12500000    0.06250000    0.00000000
SCEL4_1_4_1_3_0_0/8 4.2942 4.4906 0.19639999999999969	    SCEL4_1_4_1_3_0_0/8           1                                                                                                                           1.00000000    0.37500000    0.25000000    0.12500000    0.12500000    0.12500000    0.18750000    0.12500000    0.09375000    0.09375000    0.00000000    0.12500000    0.00000000    0.00000000    0.00000000    0.25000000    0.09375000    0.03125000    0.12500000    0.06250000    0.06250000    0.06250000    0.06250000    0.06250000    0.06250000
SCEL4_1_4_1_3_0_0/9 4.1717 4.5488 0.37709999999999955	    SCEL4_1_4_1_3_0_0/9           1                                                                                                                           1.00000000    0.37500000    0.25000000    0.00000000    0.09375000    0.25000000    0.25000000    0.12500000    0.12500000    0.12500000    0.00000000    0.06250000    0.18750000    0.12500000    0.00000000    0.18750000    0.00000000    0.06250000    0.12500000    0.00000000    0.00000000    0.00000000    0.00000000    0.06250000    0.06250000
SCEL4_2_1_2_0_0_1/0 4.2908 4.5451 0.25429999999999975	    SCEL4_2_1_2_0_0_1/0           1                                                                                                                           1.00000000    0.37500000    0.25000000    0.12500000    0.09375000    0.00000000    0.00000000    0.00000000    0.09375000    0.09375000    0.00000000    0.12500000    0.25000000    0.37500000    0.25000000    0.25000000    0.09375000    0.09375000    0.12500000    0.06250000    0.00000000    0.00000000    0.00000000    0.00000000    0.00000000
SCEL4_2_1_2_0_0_1/1 4.2513 4.4953 0.24400000000000066	    SCEL4_2_1_2_0_0_1/1           1                                                                                                                           1.00000000    0.25000000    0.50000000    0.00000000    0.12500000    0.00000000    0.00000000    0.50000000    0.12500000    0.12500000    0.00000000    0.12500000    0.00000000    0.25000000    0.50000000    0.00000000    0.12500000    0.12500000    0.00000000    0.00000000    0.00000000    0.00000000    0.12500000    0.00000000    0.00000000
SCEL4_2_1_2_0_0_1/2 4.194 4.6072 0.4131999999999998	    SCEL4_2_1_2_0_0_1/2           1                                                                                                                           1.00000000    0.50000000    0.00000000    0.12500000    0.00000000    0.25000000    0.25000000    0.00000000    0.00000000    0.00000000    0.00000000    0.25000000    0.25000000    0.50000000    0.00000000    0.25000000    0.00000000    0.00000000    0.12500000    0.00000000    0.00000000    0.00000000    0.00000000    0.00000000    0.00000000
SCEL4_2_1_2_0_0_1/3 4.2426 4.5484 0.3057999999999996	    SCEL4_2_1_2_0_0_1/3           1                                                                                                                           1.00000000    0.25000000    0.50000000    0.00000000    0.12500000    0.25000000    0.00000000    0.00000000    0.12500000    0.12500000    0.25000000    0.00000000    0.00000000    0.25000000    0.50000000    0.00000000    0.12500000    0.12500000    0.00000000    0.00000000    0.00000000    0.00000000    0.00000000    0.00000000    0.12500000
SCEL4_2_1_2_0_0_1/4 4.2075 4.5492 0.34170000000000034	    SCEL4_2_1_2_0_0_1/4           1                                                                                                                           1.00000000    0.37500000    0.25000000    0.00000000    0.09375000    0.25000000    0.25000000    0.00000000    0.09375000    0.09375000    0.00000000    0.00000000    0.25000000    0.37500000    0.25000000    0.25000000    0.09375000    0.09375000    0.00000000    0.00000000    0.00000000    0.00000000    0.00000000    0.06250000    0.06250000
SCEL4_2_1_2_0_0_1/5 4.214 4.4999 0.2858999999999998	    SCEL4_2_1_2_0_0_1/5           1                                                                                                                           1.00000000    0.12500000    0.75000000    0.00000000    0.09375000    0.00000000    0.00000000    0.50000000    0.09375000    0.09375000    0.50000000    0.00000000    0.00000000    0.12500000    0.75000000    0.00000000    0.09375000    0.09375000    0.00000000    0.00000000    0.00000000    0.00000000    0.06250000    0.00000000    0.00000000
SCEL4_2_1_2_0_0_1/6 4.2318 4.5341 0.3022999999999998	    SCEL4_2_1_2_0_0_1/6           1                                                                                                                           1.00000000    0.37500000    0.25000000    0.25000000    0.09375000    0.00000000    0.25000000    0.00000000    0.09375000    0.09375000    0.00000000    0.00000000    0.00000000    0.37500000    0.25000000    0.00000000    0.09375000    0.09375000    0.25000000    0.06250000    0.06250000    0.12500000    0.00000000    0.06250000    0.00000000
SCEL4_2_1_2_0_0_1/7 4.2823 4.475 0.19269999999999943	    SCEL4_2_1_2_0_0_1/7           1                                                                                                                           1.00000000    0.25000000    0.50000000    0.12500000    0.12500000    0.00000000    0.00000000    0.50000000    0.12500000    0.12500000    0.00000000    0.00000000    0.00000000    0.25000000    0.50000000    0.00000000    0.12500000    0.12500000    0.12500000    0.12500000    0.00000000    0.00000000    0.12500000    0.00000000    0.00000000
SCEL4_2_1_2_0_0_1/8 4.2538 4.5249 0.2710999999999997	    SCEL4_2_1_2_0_0_1/8           1                                                                                                                           1.00000000    0.25000000    0.50000000    0.12500000    0.12500000    0.00000000    0.00000000    0.00000000    0.12500000    0.12500000    0.25000000    0.00000000    0.00000000    0.25000000    0.50000000    0.00000000    0.12500000    0.12500000    0.12500000    0.06250000    0.06250000    0.00000000    0.00000000    0.00000000    0.00000000
SCEL4_2_1_2_0_1_1/0 4.2707 4.5545 0.2838000000000003	    SCEL4_2_1_2_0_1_1/0           1                                                                                                                           1.00000000    0.37500000    0.25000000    0.12500000    0.09375000    0.12500000    0.00000000    0.00000000    0.09375000    0.09375000    0.00000000    0.12500000    0.12500000    0.37500000    0.25000000    0.12500000    0.09375000    0.09375000    0.12500000    0.06250000    0.00000000    0.00000000    0.00000000    0.00000000    0.06250000
SCEL4_2_1_2_0_1_1/1 4.2176 4.5528 0.3352000000000004	    SCEL4_2_1_2_0_1_1/1           1                                                                                                                           1.00000000    0.25000000    0.50000000    0.00000000    0.12500000    0.00000000    0.00000000    0.00000000    0.12500000    0.12500000    0.25000000    0.12500000    0.00000000    0.25000000    0.50000000    0.00000000    0.12500000    0.12500000    0.00000000    0.00000000    0.00000000    0.00000000    0.00000000    0.00000000    0.00000000
SCEL4_2_1_2_0_1_1/2 4.2112 4.5659 0.35470000000000024	    SCEL4_2_1_2_0_1_1/2           1                                                                                                                           1.00000000    0.37500000    0.25000000    0.00000000    0.09375000    0.25000000    0.25000000    0.00000000    0.09375000    0.09375000    0.00000000    0.00000000    0.25000000    0.37500000    0.25000000    0.25000000    0.09375000    0.09375000    0.00000000    0.00000000    0.00000000    0.00000000    0.00000000    0.06250000    0.06250000
SCEL4_2_1_2_0_1_1/3 4.2141 4.5459 0.33179999999999943	    SCEL4_2_1_2_0_1_1/3           1                                                                                                                           1.00000000    0.25000000    0.50000000    0.00000000    0.12500000    0.12500000    0.00000000    0.00000000    0.12500000    0.12500000    0.25000000    0.00000000    0.12500000    0.25000000    0.50000000    0.12500000    0.12500000    0.12500000    0.00000000    0.00000000    0.00000000    0.00000000    0.00000000    0.00000000    0.06250000
SCEL4_2_1_2_0_1_1/4 4.1947 4.6122 0.41749999999999954	    SCEL4_2_1_2_0_1_1/4           1                                                                                                                           1.00000000    0.50000000    0.00000000    0.25000000    0.00000000    0.12500000    0.25000000    0.00000000    0.00000000    0.00000000    0.00000000    0.25000000    0.12500000    0.50000000    0.00000000    0.12500000    0.00000000    0.00000000    0.25000000    0.00000000    0.00000000    0.12500000    0.00000000    0.00000000    0.00000000
SCEL4_2_1_2_0_1_1/5 4.2569 4.4964 0.2395000000000005	    SCEL4_2_1_2_0_1_1/5           1                                                                                                                           1.00000000    0.25000000    0.50000000    0.00000000    0.12500000    0.00000000    0.00000000    0.50000000    0.12500000    0.12500000    0.00000000    0.12500000    0.00000000    0.25000000    0.50000000    0.00000000    0.12500000    0.12500000    0.00000000    0.00000000    0.00000000    0.00000000    0.12500000    0.00000000    0.00000000
