\relax 
\providecommand\hyper@newdestlabel[2]{}
\providecommand\HyperFirstAtBeginDocument{\AtBeginDocument}
\HyperFirstAtBeginDocument{\ifx\hyper@anchor\@undefined
\global\let\oldcontentsline\contentsline
\gdef\contentsline#1#2#3#4{\oldcontentsline{#1}{#2}{#3}}
\global\let\oldnewlabel\newlabel
\gdef\newlabel#1#2{\newlabelxx{#1}#2}
\gdef\newlabelxx#1#2#3#4#5#6{\oldnewlabel{#1}{{#2}{#3}}}
\AtEndDocument{\ifx\hyper@anchor\@undefined
\let\contentsline\oldcontentsline
\let\newlabel\oldnewlabel
\fi}
\fi}
\global\let\hyper@last\relax 
\gdef\HyperFirstAtBeginDocument#1{#1}
\providecommand\HyField@AuxAddToFields[1]{}
\providecommand\HyField@AuxAddToCoFields[2]{}
\citation{Ito1988}
\citation{Ito1988,Wallace2017,Giraldo2019}
\citation{Wang2014,Bourdais2016,Siebentritt2017}
\citation{Wang2014}
\citation{Bourdais2016,Valentini2016,Scragg2016}
\citation{Rey2014,Valentini2016}
\citation{Nishiwaki2018}
\citation{Lang2018,Rey2018}
\citation{Bourdais2016,Rey2016,Larsen2019,Larsen2020}
\citation{Rudisch2016}
\citation{Schorr2007}
\citation{Toebbens2016}
\citation{Sanchez1984}
\citation{Magri1991,Burton2011,Yu2016,Ramkumar2018,Hadke2019a,Xu2019,Cordell2021}
\newlabel{FirstPage}{{}{1}{}{section*.1}{}}
\@writefile{toc}{\contentsline {title}{Origin of the low conversion efficiency in \ce {Cu2ZnSnS4} kesterite solar cells: the actual role of cation disorder}{1}{section*.2}\protected@file@percent }
\@writefile{toc}{\contentsline {abstract}{Abstract}{1}{section*.1}\protected@file@percent }
\@writefile{toc}{\contentsline {section}{\numberline {}Introduction}{1}{section*.3}\protected@file@percent }
\@writefile{toc}{\contentsline {section}{\numberline {}Results}{1}{section*.4}\protected@file@percent }
\@writefile{toc}{\contentsline {subsection}{\numberline {}Cation disorder and band tailing}{1}{section*.5}\protected@file@percent }
\citation{Connolly1983}
\citation{Bourdais2016,Ramkumar2018}
\citation{Scragg2014}
\citation{Bosson2017,Ramkumar2018,Wallace2019,Zheng2019}
\citation{Rey2014,Valentini2016,Bourdais2016,Scragg2016}
\@writefile{lof}{\contentsline {figure}{\numberline {1}{\ignorespaces (a) Clusters included for the CE. The pair 1NN, pair 2NN, and triplet 1NN clusters are shown in blue, green, and orange, respectively. The crystal structure depicted corresponds to the kesterite structure, and the Cu/Zn sites are labeled by the Wyckoff positions. Only the CE-active sites (Cu and Zn) are shown. (b) CZTS structure with extensive cation disorder highlighting the presence of the four S-centered tetrahedral motifs (Cu: blue; Zn: magenta; Sn: gray; S: orange).\relax }}{2}{figure.caption.6}\protected@file@percent }
\providecommand*\caption@xref[2]{\@setref\relax\@undefined{#1}}
\newlabel{fig:clusters}{{1}{2}{(a) Clusters included for the CE. The pair 1NN, pair 2NN, and triplet 1NN clusters are shown in blue, green, and orange, respectively. The crystal structure depicted corresponds to the kesterite structure, and the Cu/Zn sites are labeled by the Wyckoff positions. Only the CE-active sites (Cu and Zn) are shown. (b) CZTS structure with extensive cation disorder highlighting the presence of the four S-centered tetrahedral motifs (Cu: blue; Zn: magenta; Sn: gray; S: orange).\relax }{figure.caption.6}{}}
\@writefile{lof}{\contentsline {figure}{\numberline {2}{\ignorespaces Temperature dependence of (a) Cu occupancy at the three possible lattice sites, (b) concentration of various S-centered tetrahedral motifs, and (c) fundamental band gap ($E_g$) and long-range order parameter ($S$). Taking into account the band-gap underestimation, we apply a rigid shift of 0.9\nobreakspace  {}eV to the PBE$+U$ band gaps from the training set. The order parameter is calculated as $(P_\text  {Cu}-2/3)/(1-2/3)$, where $P_\text  {Cu}$ is the probability of Cu occupying the 2$a$ and 2$c$ sites.\relax }}{2}{figure.caption.7}\protected@file@percent }
\newlabel{fig:occ_gap_motif}{{2}{2}{Temperature dependence of (a) Cu occupancy at the three possible lattice sites, (b) concentration of various S-centered tetrahedral motifs, and (c) fundamental band gap ($E_g$) and long-range order parameter ($S$). Taking into account the band-gap underestimation, we apply a rigid shift of 0.9~eV to the PBE$+U$ band gaps from the training set. The order parameter is calculated as $(P_\text {Cu}-2/3)/(1-2/3)$, where $P_\text {Cu}$ is the probability of Cu occupying the 2$a$ and 2$c$ sites.\relax }{figure.caption.7}{}}
\citation{Rey2018}
\citation{Rey2018}
\citation{DeWolf2014}
\citation{Bourdais2016}
\citation{Rey2018}
\citation{Chen2013,Han2013,Yee2015}
\@writefile{toc}{\contentsline {subsection}{\numberline {}Point defects in disordered CZTS}{3}{section*.10}\protected@file@percent }
\@writefile{toc}{\contentsline {subsubsection}{\numberline {}Disorder-assisted defect stabilization}{3}{section*.11}\protected@file@percent }
\citation{Giraldo2019}
\@writefile{lof}{\contentsline {figure}{\numberline {3}{\ignorespaces  (a) Dependence of DOS as a function of temperature. The energies are referred to the VBM of the kesterite. Only the configurational aspects of the temperature effects are taken into account. A rigid scissor shift of 0.9\nobreakspace  {}eV to the conduction band is applied on top of the PBE$+U$ results. The inset shows a zoom of the region near the VBM. (b)--(e) provide the cluster-resolved components of the DOS and the ECDOS ($V_\alpha $ in states/eV) per cluster function averaged over the energy window ranging from $E_\text  {VBM}$ to $E_\text  {VBM}+0.2$\nobreakspace  {}eV. The temperature-independent contribution from the empty cluster is shown by the dashed lines. \relax }}{4}{figure.caption.8}\protected@file@percent }
\newlabel{fig:dos}{{3}{4}{(a) Dependence of DOS as a function of temperature. The energies are referred to the VBM of the kesterite. Only the configurational aspects of the temperature effects are taken into account. A rigid scissor shift of 0.9~eV to the conduction band is applied on top of the PBE$+U$ results. The inset shows a zoom of the region near the VBM. (b)--(e) provide the cluster-resolved components of the DOS and the ECDOS ($V_\alpha $ in states/eV) per cluster function averaged over the energy window ranging from $E_\text {VBM}$ to $E_\text {VBM}+0.2$~eV. The temperature-independent contribution from the empty cluster is shown by the dashed lines. \relax }{figure.caption.8}{}}
\@writefile{lof}{\contentsline {figure}{\numberline {4}{\ignorespaces  (a) Optical absorption coefficient $\alpha $ and (b) Tauc plot as a function of temperature. The Urbach energies $E_\text  {U}$ extracted from the absorption coefficient are given in the inset. For reference, the photoluminescence (PL) absorption coefficient of CZTSSe\cite  {Rey2018} is shown in the shaded area where the boundaries correspond to the disordered and partially ordered samples. The experimental spectra are shifted to account for the difference between the experimental Tauc band gap of CZTSSe and the band gap determined from the Tauc plot in (b).\relax }}{4}{figure.caption.9}\protected@file@percent }
\newlabel{fig:abs}{{4}{4}{(a) Optical absorption coefficient $\alpha $ and (b) Tauc plot as a function of temperature. The Urbach energies $E_\text {U}$ extracted from the absorption coefficient are given in the inset. For reference, the photoluminescence (PL) absorption coefficient of CZTSSe\cite {Rey2018} is shown in the shaded area where the boundaries correspond to the disordered and partially ordered samples. The experimental spectra are shifted to account for the difference between the experimental Tauc band gap of CZTSSe and the band gap determined from the Tauc plot in (b).\relax }{figure.caption.9}{}}
\citation{Chen2013}
\citation{Rey2016}
\@writefile{lof}{\contentsline {figure}{\numberline {5}{\ignorespaces Distribution of formation energies of acceptor-like (a) and donor-like (b) native defects in CZTS with extensive Cu--Zn disorder modeled by a special supercell obtained from MC simulations at 800 K. The formation energies are calculated for the neutral charge state with PBE$+U$ excluding any structural relaxations, and are given in reference to the values obtained with perfectly ordered CZTS. The various sites at which a specific defect is located are characterized by its surrounding tetrahedral motifs, which are either Cu rich (red), Cu poor (blue), or stoichiometric (yellow). For the linear regression, formation energies are fitted to $E_0 + \alpha _i n_i$, where $n_i$ is the number of one specific tetrahedral motif encompassing the defect site. $L_2$ regularization and 5-fold cross-validation are used to reduce overfitting. \relax }}{5}{figure.caption.12}\protected@file@percent }
\newlabel{fig:def_energy}{{5}{5}{Distribution of formation energies of acceptor-like (a) and donor-like (b) native defects in CZTS with extensive Cu--Zn disorder modeled by a special supercell obtained from MC simulations at 800 K. The formation energies are calculated for the neutral charge state with PBE$+U$ excluding any structural relaxations, and are given in reference to the values obtained with perfectly ordered CZTS. The various sites at which a specific defect is located are characterized by its surrounding tetrahedral motifs, which are either Cu rich (red), Cu poor (blue), or stoichiometric (yellow). For the linear regression, formation energies are fitted to $E_0 + \alpha _i n_i$, where $n_i$ is the number of one specific tetrahedral motif encompassing the defect site. $L_2$ regularization and 5-fold cross-validation are used to reduce overfitting. \relax }{figure.caption.12}{}}
\@writefile{lof}{\contentsline {figure}{\numberline {6}{\ignorespaces Calculated formation energies of (a) acceptors and (c) donors in the disordered CZTS using the HSE hybrid functional. The corresponding results in the ordered CZTS are shown in (b) and (d) for acceptors and donors, respectively. The Fermi energy is referred to the VBM. The equilibrium Fermi level at 300 K is shown by the dashed vertical line. We consider the Cu-poor and Zn-rich conditions for the growth of stoichiometric CZTS ($\Delta \mu _\text  {Cu}=-0.50$\nobreakspace  {}eV, $\Delta \mu _\text  {Zn}=-1.54$\nobreakspace  {}eV, $\Delta \mu _\text  {Sn}=-0.57$\nobreakspace  {}eV).\relax }}{5}{figure.caption.13}\protected@file@percent }
\newlabel{fig:def_level_1}{{6}{5}{Calculated formation energies of (a) acceptors and (c) donors in the disordered CZTS using the HSE hybrid functional. The corresponding results in the ordered CZTS are shown in (b) and (d) for acceptors and donors, respectively. The Fermi energy is referred to the VBM. The equilibrium Fermi level at 300 K is shown by the dashed vertical line. We consider the Cu-poor and Zn-rich conditions for the growth of stoichiometric CZTS ($\Delta \mu _\text {Cu}=-0.50$~eV, $\Delta \mu _\text {Zn}=-1.54$~eV, $\Delta \mu _\text {Sn}=-0.57$~eV).\relax }{figure.caption.13}{}}
\@writefile{toc}{\contentsline {subsubsection}{\numberline {}Defect levels and equilibrium concentrations in disordered CZTS}{5}{section*.14}\protected@file@percent }
\citation{Li2019,Kim2019}
\citation{Chen2013}
\citation{Chen2012,Chen2013}
\citation{Ma2019}
\@writefile{lof}{\contentsline {figure}{\numberline {7}{\ignorespaces Formation energies of (a) stoichiometric and (c) non-stoichiometric donor-acceptor pairs in the disordered CZTS and in the ordered CZTS (b and d). The notions and growth conditions follow those of Fig.\nobreakspace  {}\ref  {fig:def_level_1}.\relax }}{6}{figure.caption.15}\protected@file@percent }
\newlabel{fig:def_level_2}{{7}{6}{Formation energies of (a) stoichiometric and (c) non-stoichiometric donor-acceptor pairs in the disordered CZTS and in the ordered CZTS (b and d). The notions and growth conditions follow those of Fig.~\ref {fig:def_level_1}.\relax }{figure.caption.15}{}}
\citation{Griscom2006}
\citation{Gavartin2006}
\citation{Rey2018}
\citation{Rey2018}
\citation{Whalley2019}
\citation{DeWolf2014}
\citation{Bourdais2016}
\citation{Crovetto2020}
\citation{Rey2018}
\citation{Zawadzki2015}
\citation{Rau2004}
\@writefile{lot}{\contentsline {table}{\numberline {1}{\ignorespaces Thermal equilibrium defect concentration $N$ and hole concentration $p_0$ at equilibrium Fermi energy $E_\text  {F}$ in cation disordered and ordered CZTS. The defect concentration corresponds to the sum over all relevant charge states. A detailed breakdown of defect concentrations for various charge states can be found in Table\nobreakspace  {}S1 of the SI. The results assume the same growth conditions as given in Fig.\nobreakspace  {}\ref  {fig:def_level_1}.\relax }}{7}{table.caption.16}\protected@file@percent }
\newlabel{tab:defect}{{1}{7}{Thermal equilibrium defect concentration $N$ and hole concentration $p_0$ at equilibrium Fermi energy $E_\text {F}$ in cation disordered and ordered CZTS. The defect concentration corresponds to the sum over all relevant charge states. A detailed breakdown of defect concentrations for various charge states can be found in Table~S1 of the SI. The results assume the same growth conditions as given in Fig.~\ref {fig:def_level_1}.\relax }{table.caption.16}{}}
\@writefile{toc}{\contentsline {section}{\numberline {}Discussion}{7}{section*.17}\protected@file@percent }
\@writefile{toc}{\contentsline {subsection}{\numberline {}Band-gap fluctuations}{7}{section*.18}\protected@file@percent }
\citation{Rau2007,Rau2014}
\citation{Chen2012,Kim2020}
\citation{Shockley1952,Hall1952}
\citation{Hages2017}
\citation{Yan2018}
\citation{Kim2020}
\citation{Ma2019,Crovetto2020}
\citation{Scragg2016,Rudisch2016}
\citation{Bourdais2016}
\citation{Larsen2019,Larsen2020}
\citation{Ma2019}
\citation{Ren2017}
\@writefile{lof}{\contentsline {figure}{\numberline {8}{\ignorespaces Planar-averaged local electronic density of states for (a) disordered and (b) ordered CZTS calculated with PBE$+U$. The energy levels are referred to the VBM. The spatial-resolved valence-band edge is highlighted by the green dashed isoline of the local DOS. The isovalue is chosen so that the the isoline at the highest energy reconciles the VBM. Specifically, the isovalue corresponds to $4\times 10^{-4}$ and $1\times 10^{-5}$ states/eV$\cdot \text  {\r A}^2$ for the disordered and the ordered CZTS, respectively. A macroscopic planar average of the isoline is further carried out over the size of a unit cell (5.4 \r A). The CBM is shifted rigidly to account for the band-gap underestimation. For the disordered CZTS, a histogram depicting the number of the Cu-rich motif Cu--Cu--Cu--Sn is shown on the top panel. The ordered CZTS is characterized by a uniform distribution of the Cu--Cu--Zn--Sn motif.\relax }}{8}{figure.caption.19}\protected@file@percent }
\newlabel{fig:gap_var}{{8}{8}{Planar-averaged local electronic density of states for (a) disordered and (b) ordered CZTS calculated with PBE$+U$. The energy levels are referred to the VBM. The spatial-resolved valence-band edge is highlighted by the green dashed isoline of the local DOS. The isovalue is chosen so that the the isoline at the highest energy reconciles the VBM. Specifically, the isovalue corresponds to $4\times 10^{-4}$ and $1\times 10^{-5}$ states/eV$\cdot \text {\AA }^2$ for the disordered and the ordered CZTS, respectively. A macroscopic planar average of the isoline is further carried out over the size of a unit cell (5.4 \AA ). The CBM is shifted rigidly to account for the band-gap underestimation. For the disordered CZTS, a histogram depicting the number of the Cu-rich motif Cu--Cu--Cu--Sn is shown on the top panel. The ordered CZTS is characterized by a uniform distribution of the Cu--Cu--Zn--Sn motif.\relax }{figure.caption.19}{}}
\@writefile{toc}{\contentsline {subsection}{\numberline {}Nonradiative recombinations in disordered CZTS}{8}{section*.20}\protected@file@percent }
\@writefile{lot}{\contentsline {table}{\numberline {2}{\ignorespaces Nonradiative recombination lifetime $\tau $ for Sn$^{+2}_\text  {Zn}$ and [Sn$_\text  {Zn}$+Cu$_\text  {Zn}$]$^{+}$ assessed in ordered and disordered CZTS under Cu-poor and Zn-rich growth conditions. The trap-limited conversion efficiency $\eta $ is estimated based on the two predominant Sn$_\text  {Zn}$-related deep donors.\relax }}{8}{table.caption.21}\protected@file@percent }
\newlabel{tab:srh}{{2}{8}{Nonradiative recombination lifetime $\tau $ for Sn$^{+2}_\text {Zn}$ and [Sn$_\text {Zn}$+Cu$_\text {Zn}$]$^{+}$ assessed in ordered and disordered CZTS under Cu-poor and Zn-rich growth conditions. The trap-limited conversion efficiency $\eta $ is estimated based on the two predominant Sn$_\text {Zn}$-related deep donors.\relax }{table.caption.21}{}}
\citation{Giraldo2019}
\citation{Chagarov2016,Gershon2016,Gershon2016a,Guchhait2016,Zhao2017,Hadke2018}
\citation{Xiao2013,Su2015,Yan2017,Hadke2018,Su2020}
\citation{Kim2016,Collord2016,Kim2016a,Choubrac2020}
\citation{Su2020}
\citation{Hadke2019a}
\citation{Schorr2019}
\citation{casm,Puchala2013,Thomas2013,VanderVen2018}
\citation{Kresse1996,Kresse1996a}
\citation{Giannozzi2009,Giannozzi2017,Lin2016,Carnimeo2019}
\citation{Hamann2013,Hamann2017,Setten2018}
\citation{Freysoldt2009,Freysoldt2011,Komsa2012}
\@writefile{toc}{\contentsline {section}{\numberline {}Conclusions}{9}{section*.22}\protected@file@percent }
\@writefile{toc}{\contentsline {section}{\numberline {}Methods Section}{9}{section*.23}\protected@file@percent }
\citation{Shockley1952,Hall1952}
\citation{Kim2019}
\citation{Kim2018}
\citation{Kim2020}
\citation{Kirchartz2018}
\newlabel{eq:srh}{{8}{10}{}{equation.0.8}{}}
\newlabel{eq:eta}{{11}{10}{}{equation.0.11}{}}
\@writefile{toc}{\contentsline {section}{\numberline {}Conflict of interest}{10}{section*.24}\protected@file@percent }
\bibdata{mainNotes,main}
\bibcite{Ito1988}{{1}{1988}{{Ito and Nakazawa}}{{}}}
\bibcite{Wallace2017}{{2}{2017}{{Wallace \emph  {et~al.}}}{{Wallace, Mitzi, and Walsh}}}
\bibcite{Giraldo2019}{{3}{2019}{{Giraldo \emph  {et~al.}}}{{Giraldo, Jehl, Placidi, Izquierdo-Roca, P\'{e}rez-Rodr\'{i}guez, and Saucedo}}}
\bibcite{Wang2014}{{4}{2014}{{Wang \emph  {et~al.}}}{{Wang, Winkler, Gunawan, Gokmen, Todorov, Zhu, and Mitzi}}}
\bibcite{Bourdais2016}{{5}{2016}{{Bourdais \emph  {et~al.}}}{{Bourdais, Chon\'{e}, Delatouche, Jacob, Larramona, Moisan, Lafond, Donatini, Rey, Siebentritt, Walsh, and Dennler}}}
\bibcite{Siebentritt2017}{{6}{2017}{{Siebentritt}}{{}}}
\bibcite{Valentini2016}{{7}{2016}{{Valentini \emph  {et~al.}}}{{Valentini, Malerba, Menchini, Tedeschi, Polimeni, Capizzi, and Mittiga}}}
\bibcite{Scragg2016}{{8}{2016}{{Scragg \emph  {et~al.}}}{{Scragg, Larsen, Kumar, Persson, Sendler, Siebentritt, and Platzer~Björkman}}}
\bibcite{Rey2014}{{9}{2014}{{Rey \emph  {et~al.}}}{{Rey, Redinger, Sendler, Weiss, Thevenin, Guennou, El~Adib, and Siebentritt}}}
\bibcite{Nishiwaki2018}{{10}{2018}{{Nishiwaki \emph  {et~al.}}}{{Nishiwaki, Nagaya, Kato, Fujimoto, Tampo, Miyadera, Chikamatsu, Shibata, and Fujiwara}}}
\bibcite{Lang2018}{{11}{2018}{{Lang \emph  {et~al.}}}{{Lang, Renz, Opolka, Zimmermann, Kr\"{a}mmer, Neuwirth, Kalt, and Hetterich}}}
\bibcite{Rey2018}{{12}{2018}{{Rey \emph  {et~al.}}}{{Rey, Larramona, Bourdais, Chon\'{e}, Delatouche, Jacob, Dennler, and Siebentritt}}}
\bibcite{Rey2016}{{13}{2016}{{Rey \emph  {et~al.}}}{{Rey, Weiss, Sendler, Finger, Spindler, Werner, Melchiorre, H\'{a}la, Guennou, and Siebentritt}}}
\bibcite{Larsen2019}{{14}{2019}{{Larsen \emph  {et~al.}}}{{Larsen, Larsson, Törndahl, Saini, Riekehr, Ren, Biswal, Hauschild, Weinhardt, Heske, and Platzer-Björkman}}}
\bibcite{Larsen2020}{{15}{2020}{{Larsen \emph  {et~al.}}}{{Larsen, Scragg, Ross, and Platzer-Björkman}}}
\bibcite{Rudisch2016}{{16}{2016}{{Rudisch \emph  {et~al.}}}{{Rudisch, Ren, Platzer-Björkman, and Scragg}}}
\bibcite{Schorr2007}{{17}{2007}{{Schorr \emph  {et~al.}}}{{Schorr, Hoebler, and Tovar}}}
\bibcite{Toebbens2016}{{18}{2016}{{T\"{o}bbens \emph  {et~al.}}}{{T\"{o}bbens, Gurieva, Levcenko, Unold, and Schorr}}}
\bibcite{Sanchez1984}{{19}{1984}{{Sanchez \emph  {et~al.}}}{{Sanchez, Ducastelle, and Gratias}}}
\bibcite{Magri1991}{{20}{1991}{{Magri \emph  {et~al.}}}{{Magri, Froyen, and Zunger}}}
\bibcite{Burton2011}{{21}{2011}{{Burton \emph  {et~al.}}}{{Burton, Demers, and van~de Walle}}}
\bibcite{Yu2016}{{22}{2016}{{Yu and Carter}}{{}}}
\bibcite{Ramkumar2018}{{23}{2018}{{Ramkumar \emph  {et~al.}}}{{Ramkumar, Miglio, van Setten, Waroquiers, Hautier, and Rignanese}}}
\bibcite{Hadke2019a}{{24}{2019}{{Hadke \emph  {et~al.}}}{{Hadke, Chen, Tan, Guc, Izquierdo-Roca, Rignanese, Hautier, and Wong}}}
\bibcite{Xu2019}{{25}{2019}{{Xu and Jiang}}{{}}}
\bibcite{Cordell2021}{{26}{2021}{{Cordell \emph  {et~al.}}}{{Cordell, Pan, Tamboli, Tucker, and Lany}}}
\bibcite{Connolly1983}{{27}{1983}{{Connolly and Williams}}{{}}}
\bibcite{Scragg2014}{{28}{2014}{{Scragg \emph  {et~al.}}}{{Scragg, Choubrac, Lafond, Ericson, and Platzer-Bj\"{o}rkman}}}
\bibcite{Bosson2017}{{29}{2017}{{Bosson \emph  {et~al.}}}{{Bosson, Birch, Halliday, Knight, Gibbs, and Hatton}}}
\bibcite{Wallace2019}{{30}{2019}{{Wallace \emph  {et~al.}}}{{Wallace, Frost, and Walsh}}}
\bibcite{Zheng2019}{{31}{2019}{{Zheng \emph  {et~al.}}}{{Zheng, Yang, and Gong}}}
\bibcite{DeWolf2014}{{32}{2014}{{De~Wolf \emph  {et~al.}}}{{De~Wolf, Holovsky, Moon, L\"{o}per, Niesen, Ledinsky, Haug, Yum, and Ballif}}}
\bibcite{Chen2013}{{33}{2013}{{Chen \emph  {et~al.}}}{{Chen, Walsh, Gong, and Wei}}}
\bibcite{Han2013}{{34}{2013}{{Han \emph  {et~al.}}}{{Han, Sun, Bang, Zhang, Sun, Li, and Zhang}}}
\bibcite{Yee2015}{{35}{2015}{{Yee \emph  {et~al.}}}{{Yee, Magyari-K\"ope, Nishi, Bent, and Clemens}}}
\bibcite{Li2019}{{36}{2019}{{Li \emph  {et~al.}}}{{Li, Yuan, Chen, Gong, and Wei}}}
\bibcite{Kim2019}{{37}{2019}{{Kim \emph  {et~al.}}}{{Kim, Park, Hood, and Walsh}}}
\bibcite{Chen2012}{{38}{2012}{{Chen \emph  {et~al.}}}{{Chen, Wang, Walsh, Gong, and Wei}}}
\bibcite{Ma2019}{{39}{2019}{{Ma \emph  {et~al.}}}{{Ma, Li, Hong, Wang, Lu, Chen, Sun, Yue, Tomm, Chu, and Chen}}}
\bibcite{Griscom2006}{{40}{2006}{{Griscom}}{{}}}
\bibcite{Gavartin2006}{{41}{2006}{{Gavartin \emph  {et~al.}}}{{Gavartin, Ramo, Shluger, and Bersuker}}}
\bibcite{Whalley2019}{{42}{2019}{{Whalley \emph  {et~al.}}}{{Whalley, Frost, Morgan, and Walsh}}}
\bibcite{Crovetto2020}{{43}{2020}{{Crovetto \emph  {et~al.}}}{{Crovetto, Kim, Fischer, Stenger, Walsh, Chorkendorff, and Vesborg}}}
\bibcite{Zawadzki2015}{{44}{2015}{{Zawadzki \emph  {et~al.}}}{{Zawadzki, Zakutayev, and Lany}}}
\bibcite{Rau2004}{{45}{2004}{{Rau and Werner}}{{}}}
\bibcite{Rau2007}{{46}{2007}{{Rau}}{{}}}
\bibcite{Rau2014}{{47}{2014}{{Rau \emph  {et~al.}}}{{Rau, Paetzold, and Kirchartz}}}
\bibcite{Kim2020}{{48}{2020}{{Kim \emph  {et~al.}}}{{Kim, Márquez, Unold, and Walsh}}}
\bibcite{Shockley1952}{{49}{1952}{{Shockley and Read}}{{}}}
\bibcite{Hall1952}{{50}{1952}{{Hall}}{{}}}
\bibcite{Hages2017}{{51}{2017}{{Hages \emph  {et~al.}}}{{Hages, Redinger, Levcenko, Hempel, Koeper, Agrawal, Greiner, Kaufmann, and Unold}}}
\bibcite{Yan2018}{{52}{2018}{{Yan \emph  {et~al.}}}{{Yan, Huang, Sun, Johnston, Zhang, Sun, Pu, He, Liu, Eder, Yang, Cairney, Ekins-Daukes, Hameiri, Stride, Chen, Green, and Hao}}}
\bibcite{Ren2017}{{53}{2017}{{Ren \emph  {et~al.}}}{{Ren, Ross, Larsen, Rudisch, Scragg, and Platzer-Björkman}}}
\bibcite{Chagarov2016}{{54}{2016}{{Chagarov \emph  {et~al.}}}{{Chagarov, Sardashti, Kummel, Lee, Haight, and Gershon}}}
\bibcite{Gershon2016}{{55}{2016}{{Gershon \emph  {et~al.}}}{{Gershon, Sardashti, Gunawan, Mankad, Singh, Lee, Ott, Kummel, and Haight}}}
\@writefile{toc}{\contentsline {section}{\numberline {}Acknowledgments}{11}{section*.25}\protected@file@percent }
\@writefile{toc}{\contentsline {section}{\numberline {}References}{11}{section*.26}\protected@file@percent }
\bibcite{Gershon2016a}{{56}{2016}{{Gershon \emph  {et~al.}}}{{Gershon, Lee, Antunez, Mankad, Singh, Bishop, Gunawan, Hopstaken, and Haight}}}
\bibcite{Guchhait2016}{{57}{2016}{{Guchhait \emph  {et~al.}}}{{Guchhait, Su, Tay, Shukla, Li, Leow, Tan, Lie, Gunawan, and Wong}}}
\bibcite{Zhao2017}{{58}{2017}{{Zhao \emph  {et~al.}}}{{Zhao, Han, Xu, Li, Li, Li, Wang, Dong, Ju, and Li}}}
\bibcite{Hadke2018}{{59}{2018}{{Hadke \emph  {et~al.}}}{{Hadke, Levcenko, Lie, Hages, M\'{a}rquez, Unold, and Wong}}}
\bibcite{Xiao2013}{{60}{2013}{{Xiao \emph  {et~al.}}}{{Xiao, Li, Yao, Deng, Ding, Wu, Yang, Li, Dong, Liu, Zhang, and Zhao}}}
\bibcite{Su2015}{{61}{2015}{{Su \emph  {et~al.}}}{{Su, Tan, Li, Zeng, Batabyal, and Wong}}}
\bibcite{Yan2017}{{62}{2017}{{Yan \emph  {et~al.}}}{{Yan, Sun, Huang, Johnston, Liu, Veettil, Sun, Pu, Zhou, Stride, Green, and Hao}}}
\bibcite{Su2020}{{63}{2020}{{Su \emph  {et~al.}}}{{Su, Liang, Fan, Luo, Zheng, Xie, Wang, Chen, Hu, Wei, Yan, Huang, Hao, and Liu}}}
\bibcite{Kim2016}{{64}{2016}{{Kim \emph  {et~al.}}}{{Kim, Kim, Tampo, Shibata, Matsubara, and Niki}}}
\bibcite{Collord2016}{{65}{2016}{{Collord and Hillhouse}}{{}}}
\bibcite{Kim2016a}{{66}{2016}{{Kim \emph  {et~al.}}}{{Kim, Kim, Tampo, Shibata, and Niki}}}
\bibcite{Choubrac2020}{{67}{2020}{{Choubrac \emph  {et~al.}}}{{Choubrac, B\"{a}r, Kozina, F\'{e}lix, Wilks, Brammertz, Levcenko, Arzel, Barreau, Harel, Meuris, and Vermang}}}
\bibcite{Schorr2019}{{68}{2020}{{Schorr \emph  {et~al.}}}{{Schorr, Gurieva, Guc, Dimitrievska, P{\'{e}}rez-Rodr{\'{\i }}guez, Izquierdo-Roca, Schnohr, Kim, Jo, and Merino}}}
\bibcite{casm}{{69}{2017}{{cas}}{{}}}
\bibcite{Puchala2013}{{70}{2013}{{Puchala and Van~der Ven}}{{}}}
\bibcite{Thomas2013}{{71}{2013}{{Thomas and Van~der Ven}}{{}}}
\bibcite{VanderVen2018}{{72}{2018}{{Van~der Ven \emph  {et~al.}}}{{Van~der Ven, Thomas, Puchala, and Natarajan}}}
\bibcite{Kresse1996}{{73}{1996}{{Kresse and Furthm\"uller}}{{}}}
\bibcite{Kresse1996a}{{74}{1996}{{Kresse and Furthm\"uller}}{{}}}
\bibcite{Giannozzi2009}{{75}{2009}{{Giannozzi \emph  {et~al.}}}{{Giannozzi, Baroni, Bonini, Calandra, Car, Cavazzoni, Ceresoli, Chiarotti, Cococcioni, Dabo, {Dal Corso}, de~Gironcoli, Fabris, Fratesi, Gebauer, Gerstmann, Gougoussis, Kokalj, Lazzeri, Martin-Samos, Marzari, Mauri, Mazzarello, Paolini, Pasquarello, Paulatto, Sbraccia, Scandolo, Sclauzero, Seitsonen, Smogunov, Umari, and Wentzcovitch}}}
\bibcite{Giannozzi2017}{{76}{2017}{{Giannozzi \emph  {et~al.}}}{{Giannozzi, Andreussi, Brumme, Bunau, Nardelli, Calandra, Car, Cavazzoni, Ceresoli, Cococcioni, Colonna, Carnimeo, Corso, de~Gironcoli, Delugas, Jr, Ferretti, Floris, Fratesi, Fugallo, Gebauer, Gerstmann, Giustino, Gorni, Jia, Kawamura, Ko, Kokalj, K\"{u}\c {c}\"{u}kbenli, Lazzeri, Marsili, Marzari, Mauri, Nguyen, Nguyen, de-la Roza, Paulatto, Ponc\'{e}, Rocca, Sabatini, Santra, Schlipf, Seitsonen, Smogunov, Timrov, Thonhauser, Umari, Vast, Wu, and Baroni}}}
\bibcite{Lin2016}{{77}{2016}{{Lin}}{{}}}
\bibcite{Carnimeo2019}{{78}{2019}{{Carnimeo \emph  {et~al.}}}{{Carnimeo, Baroni, and Giannozzi}}}
\bibcite{Hamann2013}{{79}{2013}{{Hamann}}{{}}}
\bibcite{Hamann2017}{{80}{2017}{{Hamann}}{{}}}
\bibcite{Setten2018}{{81}{2018}{{van Setten \emph  {et~al.}}}{{van Setten, Giantomassi, Bousquet, Verstraete, Hamann, Gonze, and Rignanese}}}
\bibcite{Freysoldt2009}{{82}{2009}{{Freysoldt \emph  {et~al.}}}{{Freysoldt, Neugebauer, and Van~de Walle}}}
\bibcite{Freysoldt2011}{{83}{2011}{{Freysoldt \emph  {et~al.}}}{{Freysoldt, Neugebauer, and Van~de Walle}}}
\bibcite{Komsa2012}{{84}{2012}{{Komsa \emph  {et~al.}}}{{Komsa, Rantala, and Pasquarello}}}
\bibcite{Kim2018}{{85}{2018}{{Kim \emph  {et~al.}}}{{Kim, Park, and Walsh}}}
\bibcite{Kirchartz2018}{{86}{2018}{{Kirchartz and Rau}}{{}}}
\bibstyle{rsc}
\newlabel{LastBibItem}{{86}{12}{}{section*.26}{}}
\newlabel{LastPage}{{}{12}{}{}{}}
\gdef \@abspage@last{12}
