\BOOKMARK [0][-]{section*.2}{\376\377\000O\000r\000i\000g\000i\000n\000\040\000o\000f\000\040\000t\000h\000e\000\040\000l\000o\000w\000\040\000c\000o\000n\000v\000e\000r\000s\000i\000o\000n\000\040\000e\000f\000f\000i\000c\000i\000e\000n\000c\000y\000\040\000i\000n\000\040\000C\000u\0002\000Z\000n\000S\000n\000S\0004\000\040\000k\000e\000s\000t\000e\000r\000i\000t\000e\000\040\000s\000o\000l\000a\000r\000\040\000c\000e\000l\000l\000s\000:\000\040\000t\000h\000e\000\040\000a\000c\000t\000u\000a\000l\000\040\000r\000o\000l\000e\000\040\000o\000f\000\040\000c\000a\000t\000i\000o\000n\000\040\000d\000i\000s\000o\000r\000d\000e\000r}{}% 2
\BOOKMARK [1][-]{section*.1}{\376\377\000A\000b\000s\000t\000r\000a\000c\000t}{section*.2}% 1
\BOOKMARK [1][-]{section*.3}{\376\377\000I\000n\000t\000r\000o\000d\000u\000c\000t\000i\000o\000n}{section*.2}% 3
\BOOKMARK [1][-]{section*.4}{\376\377\000R\000e\000s\000u\000l\000t\000s}{section*.2}% 4
\BOOKMARK [2][-]{section*.5}{\376\377\000C\000a\000t\000i\000o\000n\000\040\000d\000i\000s\000o\000r\000d\000e\000r\000\040\000a\000n\000d\000\040\000b\000a\000n\000d\000\040\000t\000a\000i\000l\000i\000n\000g}{section*.4}% 5
\BOOKMARK [2][-]{section*.10}{\376\377\000P\000o\000i\000n\000t\000\040\000d\000e\000f\000e\000c\000t\000s\000\040\000i\000n\000\040\000d\000i\000s\000o\000r\000d\000e\000r\000e\000d\000\040\000C\000Z\000T\000S}{section*.4}% 6
\BOOKMARK [3][-]{section*.11}{\376\377\000D\000i\000s\000o\000r\000d\000e\000r\000-\000a\000s\000s\000i\000s\000t\000e\000d\000\040\000d\000e\000f\000e\000c\000t\000\040\000s\000t\000a\000b\000i\000l\000i\000z\000a\000t\000i\000o\000n}{section*.10}% 7
\BOOKMARK [3][-]{section*.14}{\376\377\000D\000e\000f\000e\000c\000t\000\040\000l\000e\000v\000e\000l\000s\000\040\000a\000n\000d\000\040\000e\000q\000u\000i\000l\000i\000b\000r\000i\000u\000m\000\040\000c\000o\000n\000c\000e\000n\000t\000r\000a\000t\000i\000o\000n\000s\000\040\000i\000n\000\040\000d\000i\000s\000o\000r\000d\000e\000r\000e\000d\000\040\000C\000Z\000T\000S}{section*.10}% 8
\BOOKMARK [1][-]{section*.17}{\376\377\000D\000i\000s\000c\000u\000s\000s\000i\000o\000n}{section*.2}% 9
\BOOKMARK [2][-]{section*.18}{\376\377\000B\000a\000n\000d\000-\000g\000a\000p\000\040\000f\000l\000u\000c\000t\000u\000a\000t\000i\000o\000n\000s}{section*.17}% 10
\BOOKMARK [2][-]{section*.20}{\376\377\000N\000o\000n\000r\000a\000d\000i\000a\000t\000i\000v\000e\000\040\000r\000e\000c\000o\000m\000b\000i\000n\000a\000t\000i\000o\000n\000s\000\040\000i\000n\000\040\000d\000i\000s\000o\000r\000d\000e\000r\000e\000d\000\040\000C\000Z\000T\000S}{section*.17}% 11
\BOOKMARK [1][-]{section*.22}{\376\377\000C\000o\000n\000c\000l\000u\000s\000i\000o\000n\000s}{section*.2}% 12
\BOOKMARK [1][-]{section*.23}{\376\377\000M\000e\000t\000h\000o\000d\000s\000\040\000S\000e\000c\000t\000i\000o\000n}{section*.2}% 13
\BOOKMARK [1][-]{section*.24}{\376\377\000C\000o\000n\000f\000l\000i\000c\000t\000\040\000o\000f\000\040\000i\000n\000t\000e\000r\000e\000s\000t}{section*.2}% 14
\BOOKMARK [1][-]{section*.25}{\376\377\000A\000c\000k\000n\000o\000w\000l\000e\000d\000g\000m\000e\000n\000t\000s}{section*.2}% 15
\BOOKMARK [1][-]{section*.26}{\376\377\000R\000e\000f\000e\000r\000e\000n\000c\000e\000s}{section*.2}% 16
