\relax 
\providecommand\hyper@newdestlabel[2]{}
\providecommand\HyperFirstAtBeginDocument{\AtBeginDocument}
\HyperFirstAtBeginDocument{\ifx\hyper@anchor\@undefined
\global\let\oldcontentsline\contentsline
\gdef\contentsline#1#2#3#4{\oldcontentsline{#1}{#2}{#3}}
\global\let\oldnewlabel\newlabel
\gdef\newlabel#1#2{\newlabelxx{#1}#2}
\gdef\newlabelxx#1#2#3#4#5#6{\oldnewlabel{#1}{{#2}{#3}}}
\AtEndDocument{\ifx\hyper@anchor\@undefined
\let\contentsline\oldcontentsline
\let\newlabel\oldnewlabel
\fi}
\fi}
\global\let\hyper@last\relax 
\gdef\HyperFirstAtBeginDocument#1{#1}
\providecommand\HyField@AuxAddToFields[1]{}
\providecommand\HyField@AuxAddToCoFields[2]{}
\newlabel{FirstPage}{{}{1}{}{Doc-Start}{}}
\@writefile{toc}{\contentsline {title}{\textsc  {supplementary information}\@centercr   Origin of the low conversion efficiency in \ce {Cu2ZnSnS4} kesterite solar cells: the actual role of cation disorder}{1}{section*.1}\protected@file@percent }
\@writefile{lof}{\contentsline {figure}{\numberline {S1}{\ignorespaces Radial distribution functions $g(r)$ for the ordered kesterite, the 288-atom special supercell (SC), and the Monte-Carlo (MC) snapshot at 800 K. The bars are slightly displaced horizontally to allow for an easy comparison.}}{1}{figure.1}\protected@file@percent }
\newlabel{fig:gofr_mc}{{S1}{1}{Radial distribution functions $g(r)$ for the ordered kesterite, the 288-atom special supercell (SC), and the Monte-Carlo (MC) snapshot at 800 K. The bars are slightly displaced horizontally to allow for an easy comparison}{figure.1}{}}
\bibdata{siNotes}
\bibstyle{apsrev4-2}
\citation{REVTEX42Control}
\citation{apsrev42Control}
\@writefile{lof}{\contentsline {figure}{\numberline {S2}{\ignorespaces Chemical potential diagrams for (cation disordered) \ce {Cu2ZnSnS4} calculated with HSE hybrid functional at varying Cu chemical potentials. The growth conditions range from Cu-rich ($\Delta \mu _\text  {Cu}=[0,-0.20]$ eV) to Cu-poor ($\Delta \mu _\text  {Cu}=[-0.50,-0.67]$ eV) conditions. The region where \ce {Cu2ZnSnS4} is stable is shaded. The representative boundary vertices are labeled (R1 and R2 under Cu-rich conditions, P1 and P2 under Cu-poor conditions).}}{2}{figure.2}\protected@file@percent }
\newlabel{fig:pd_cu}{{S2}{2}{Chemical potential diagrams for (cation disordered) \ce {Cu2ZnSnS4} calculated with HSE hybrid functional at varying Cu chemical potentials. The growth conditions range from Cu-rich ($\Delta \mu _\text {Cu}=[0,-0.20]$ eV) to Cu-poor ($\Delta \mu _\text {Cu}=[-0.50,-0.67]$ eV) conditions. The region where \ce {Cu2ZnSnS4} is stable is shaded. The representative boundary vertices are labeled (R1 and R2 under Cu-rich conditions, P1 and P2 under Cu-poor conditions)}{figure.2}{}}
\@writefile{lof}{\contentsline {figure}{\numberline {S3}{\ignorespaces Chemical potential diagrams at varying S chemical potentials. The growth conditions range from S-rich ($\Delta \mu _\text  {Cu}=[0,-0.30]$ eV) to S-poor ($\Delta \mu _\text  {Cu}=[-0.60,-0.85]$ eV) conditions. Two representative vertices are labeled (RS for S-rich and PS for P-poor conditions). The shade color refers to the chemical potential of Cu. Dark (bright) blue corresponds to a Cu-rich (poor) condition.}}{2}{figure.3}\protected@file@percent }
\newlabel{fig:pd_s}{{S3}{2}{Chemical potential diagrams at varying S chemical potentials. The growth conditions range from S-rich ($\Delta \mu _\text {Cu}=[0,-0.30]$ eV) to S-poor ($\Delta \mu _\text {Cu}=[-0.60,-0.85]$ eV) conditions. Two representative vertices are labeled (RS for S-rich and PS for P-poor conditions). The shade color refers to the chemical potential of Cu. Dark (bright) blue corresponds to a Cu-rich (poor) condition}{figure.3}{}}
\@writefile{lof}{\contentsline {figure}{\numberline {S4}{\ignorespaces Defect formation energies for \ce {Cu2ZnSnS4} obtained with HSE hybrid-functional calculations under various growth conditions (cf.\ Fig.\nobreakspace  {}\ref  {fig:pd_cu} and \ref  {fig:pd_s}). The results for disordered and ordered systems are shown by solid and dashed lines, respectively.}}{3}{figure.4}\protected@file@percent }
\newlabel{fig:def_level_all}{{S4}{3}{Defect formation energies for \ce {Cu2ZnSnS4} obtained with HSE hybrid-functional calculations under various growth conditions (cf.\ Fig.~\ref {fig:pd_cu} and \ref {fig:pd_s}). The results for disordered and ordered systems are shown by solid and dashed lines, respectively}{figure.4}{}}
\@writefile{lot}{\contentsline {table}{\numberline {S1}{\ignorespaces  Defect concentration $N$ and hole concentration $p_0$ at equilibrium Fermi energy $E_\text  {F}$ (referred to the VBM) under various growth conditions for ordered and cation-disordered CZTS.}}{4}{table.1}\protected@file@percent }
\newlabel{tab:defect_all}{{S1}{4}{Defect concentration $N$ and hole concentration $p_0$ at equilibrium Fermi energy $E_\text {F}$ (referred to the VBM) under various growth conditions for ordered and cation-disordered CZTS}{table.1}{}}
\newlabel{LastPage}{{}{4}{}{}{}}
