\relax 
\providecommand\hyper@newdestlabel[2]{}
\providecommand*\new@tpo@label[2]{}
\providecommand\HyperFirstAtBeginDocument{\AtBeginDocument}
\HyperFirstAtBeginDocument{\ifx\hyper@anchor\@undefined
\global\let\oldcontentsline\contentsline
\gdef\contentsline#1#2#3#4{\oldcontentsline{#1}{#2}{#3}}
\global\let\oldnewlabel\newlabel
\gdef\newlabel#1#2{\newlabelxx{#1}#2}
\gdef\newlabelxx#1#2#3#4#5#6{\oldnewlabel{#1}{{#2}{#3}}}
\AtEndDocument{\ifx\hyper@anchor\@undefined
\let\contentsline\oldcontentsline
\let\newlabel\oldnewlabel
\fi}
\fi}
\global\let\hyper@last\relax 
\gdef\HyperFirstAtBeginDocument#1{#1}
\providecommand\HyField@AuxAddToFields[1]{}
\providecommand\HyField@AuxAddToCoFields[2]{}
\providecommand\BKM@entry[2]{}
\newlabel{1.lastpage}{{1}{1}{}{letter.1}{}}
\BKM@entry{id=1,dest={73656374696F6E2E31},srcline={42}}{526573706F6E736520746F20526566657265652031}
\BKM@entry{id=2,dest={73656374696F6E2E32},srcline={67}}{526573706F6E736520746F20526566657265652032}
\@writefile{toc}{\contentsline {section}{\numberline {1}Response to Referee 1}{2}{section.1}\protected@file@percent }
\@writefile{toc}{\contentsline {section}{\numberline {2}Response to Referee 2}{2}{section.2}\protected@file@percent }
\BKM@entry{id=3,dest={73656374696F6E2E33},srcline={166}}{526573706F6E736520746F20526566657265652033}
\@writefile{toc}{\contentsline {section}{\numberline {3}Response to Referee 3}{5}{section.3}\protected@file@percent }
